--2018-03-26 12:32:34--  https://mirror.hactar.xyz/iso/2018.03.01/archlinux-bootstrap-2018.03.01-x86_64.tar.gz
Resolving mirror.hactar.xyz (mirror.hactar.xyz)... 144.76.14.145, 2a01:4f8:190:9490::cafe
Connecting to mirror.hactar.xyz (mirror.hactar.xyz)|144.76.14.145|:443... connected.
HTTP request sent, awaiting response... 200 OK
Length: 135733206 (129M) [application/octet-stream]
Saving to: ‘/dev/null’

/dev/null             0%[                    ]       0  --.-KB/s               /dev/null             0%[                    ] 503.66K  2.39MB/s               /dev/null             1%[                    ]   2.43M  5.91MB/s               /dev/null             5%[>                   ]   7.60M  12.3MB/s               /dev/null            14%[=>                  ]  18.23M  22.3MB/s               /dev/null            23%[===>                ]  30.69M  30.2MB/s               /dev/null            33%[=====>              ]  43.19M  35.5MB/s               /dev/null            42%[=======>            ]  55.52M  39.2MB/s               /dev/null            52%[=========>          ]  67.62M  41.8MB/s               /dev/null            61%[===========>        ]  79.65M  43.8MB/s               /dev/null            70%[=============>      ]  91.75M  45.5MB/s               /dev/null            80%[===============>    ] 103.76M  46.8MB/s               /dev/null            89%[================>   ] 115.71M  47.9MB/s               /dev/null            99%[==================> ] 128.24M  49.0MB/s               /dev/null           100%[===================>] 129.44M  49.2MB/s    in 2.6s    

2018-03-26 12:32:37 (49.2 MB/s) - ‘/dev/null’ saved [135733206/135733206]

--2018-03-26 18:32:36--  https://mirror.hactar.xyz/iso/2018.03.01/archlinux-bootstrap-2018.03.01-x86_64.tar.gz
Resolving mirror.hactar.xyz (mirror.hactar.xyz)... 144.76.14.145, 2a01:4f8:190:9490::cafe
Connecting to mirror.hactar.xyz (mirror.hactar.xyz)|144.76.14.145|:443... connected.
HTTP request sent, awaiting response... 200 OK
Length: 135733206 (129M) [application/octet-stream]
Saving to: ‘/dev/null’

/dev/null             0%[                    ]       0  --.-KB/s               /dev/null             0%[                    ] 663.66K  3.16MB/s               /dev/null             3%[                    ]   4.94M  12.1MB/s               /dev/null            12%[=>                  ]  16.30M  26.8MB/s               /dev/null            22%[===>                ]  28.57M  35.4MB/s               /dev/null            31%[=====>              ]  41.10M  40.8MB/s               /dev/null            41%[=======>            ]  53.08M  43.9MB/s               /dev/null            50%[=========>          ]  65.05M  46.2MB/s               /dev/null            59%[==========>         ]  76.91M  47.8MB/s               /dev/null            68%[============>       ]  89.18M  49.3MB/s               /dev/null            78%[==============>     ] 101.76M  50.7MB/s               /dev/null            88%[================>   ] 114.44M  51.8MB/s               /dev/null            97%[==================> ] 126.73M  52.6MB/s               /dev/null           100%[===================>] 129.44M  52.9MB/s    in 2.4s    

2018-03-26 18:32:39 (52.9 MB/s) - ‘/dev/null’ saved [135733206/135733206]

--2018-03-27 00:32:50--  https://mirror.hactar.xyz/iso/2018.03.01/archlinux-bootstrap-2018.03.01-x86_64.tar.gz
Resolving mirror.hactar.xyz (mirror.hactar.xyz)... 144.76.14.145, 2a01:4f8:190:9490::cafe
Connecting to mirror.hactar.xyz (mirror.hactar.xyz)|144.76.14.145|:443... connected.
HTTP request sent, awaiting response... 200 OK
Length: 135733206 (129M) [application/octet-stream]
Saving to: ‘/dev/null’

/dev/null             0%[                    ]       0  --.-KB/s               /dev/null             0%[                    ] 551.66K  2.66MB/s               /dev/null             2%[                    ]   3.32M  8.24MB/s               /dev/null             9%[>                   ]  12.74M  21.1MB/s               /dev/null            19%[==>                 ]  24.88M  31.0MB/s               /dev/null            28%[====>               ]  37.18M  37.0MB/s               /dev/null            38%[======>             ]  49.40M  41.0MB/s               /dev/null            47%[========>           ]  61.54M  43.8MB/s               /dev/null            56%[==========>         ]  73.58M  45.9MB/s               /dev/null            66%[============>       ]  85.77M  47.5MB/s               /dev/null            75%[==============>     ]  97.94M  48.9MB/s               /dev/null            85%[================>   ] 110.29M  50.0MB/s               /dev/null            95%[==================> ] 123.15M  51.2MB/s               /dev/null           100%[===================>] 129.44M  52.0MB/s    in 2.5s    

2018-03-27 00:32:53 (52.0 MB/s) - ‘/dev/null’ saved [135733206/135733206]

--2018-03-27 06:32:40--  https://mirror.hactar.xyz/iso/2018.03.01/archlinux-bootstrap-2018.03.01-x86_64.tar.gz
Resolving mirror.hactar.xyz (mirror.hactar.xyz)... 144.76.14.145, 2a01:4f8:190:9490::cafe
Connecting to mirror.hactar.xyz (mirror.hactar.xyz)|144.76.14.145|:443... connected.
HTTP request sent, awaiting response... 200 OK
Length: 135733206 (129M) [application/octet-stream]
Saving to: ‘/dev/null’

/dev/null             0%[                    ]       0  --.-KB/s               /dev/null             0%[                    ] 663.66K  3.24MB/s               /dev/null             3%[                    ]   4.61M  11.5MB/s               /dev/null            11%[=>                  ]  15.19M  25.3MB/s               /dev/null            21%[===>                ]  27.71M  34.6MB/s               /dev/null            31%[=====>              ]  40.37M  40.3MB/s               /dev/null            40%[=======>            ]  52.69M  43.9MB/s               /dev/null            50%[=========>          ]  65.29M  46.6MB/s               /dev/null            60%[===========>        ]  77.71M  48.5MB/s               /dev/null            69%[============>       ]  90.32M  50.1MB/s               /dev/null            79%[==============>     ] 102.69M  51.3MB/s               /dev/null            88%[================>   ] 115.05M  52.3MB/s               /dev/null            98%[==================> ] 127.41M  53.1MB/s               /dev/null           100%[===================>] 129.44M  53.5MB/s    in 2.4s    

2018-03-27 06:32:42 (53.5 MB/s) - ‘/dev/null’ saved [135733206/135733206]

--2018-03-27 12:32:43--  https://mirror.hactar.xyz/iso/2018.03.01/archlinux-bootstrap-2018.03.01-x86_64.tar.gz
Resolving mirror.hactar.xyz (mirror.hactar.xyz)... 144.76.14.145, 2a01:4f8:190:9490::cafe
Connecting to mirror.hactar.xyz (mirror.hactar.xyz)|144.76.14.145|:443... connected.
HTTP request sent, awaiting response... 200 OK
Length: 135733206 (129M) [application/octet-stream]
Saving to: ‘/dev/null’

/dev/null             0%[                    ]       0  --.-KB/s               /dev/null             0%[                    ] 591.66K  2.89MB/s               /dev/null             2%[                    ]   3.01M  7.52MB/s               /dev/null             7%[>                   ]   9.29M  15.5MB/s               /dev/null            16%[==>                 ]  21.35M  26.7MB/s               /dev/null            26%[====>               ]  33.69M  33.7MB/s               /dev/null            35%[======>             ]  46.24M  38.5MB/s               /dev/null            45%[========>           ]  58.35M  41.7MB/s               /dev/null            54%[=========>          ]  70.54M  44.1MB/s               /dev/null            63%[===========>        ]  82.69M  45.9MB/s               /dev/null            73%[=============>      ]  94.82M  47.4MB/s               /dev/null            82%[===============>    ] 107.04M  48.6MB/s               /dev/null            92%[=================>  ] 119.19M  49.6MB/s               /dev/null           100%[===================>] 129.44M  50.6MB/s    in 2.6s    

2018-03-27 12:32:46 (50.6 MB/s) - ‘/dev/null’ saved [135733206/135733206]

--2018-03-27 18:32:38--  https://mirror.hactar.xyz/iso/2018.03.01/archlinux-bootstrap-2018.03.01-x86_64.tar.gz
Resolving mirror.hactar.xyz (mirror.hactar.xyz)... 144.76.14.145, 2a01:4f8:190:9490::cafe
Connecting to mirror.hactar.xyz (mirror.hactar.xyz)|144.76.14.145|:443... connected.
HTTP request sent, awaiting response... 200 OK
Length: 135733206 (129M) [application/octet-stream]
Saving to: ‘/dev/null’

/dev/null             0%[                    ]       0  --.-KB/s               /dev/null             0%[                    ] 455.66K  2.16MB/s               /dev/null             1%[                    ]   2.57M  6.28MB/s               /dev/null             7%[>                   ]   9.30M  15.2MB/s               /dev/null            14%[=>                  ]  19.27M  23.7MB/s               /dev/null            23%[===>                ]  30.43M  30.1MB/s               /dev/null            32%[=====>              ]  41.51M  34.2MB/s               /dev/null            40%[=======>            ]  52.52M  37.2MB/s               /dev/null            48%[========>           ]  63.35M  39.3MB/s               /dev/null            57%[==========>         ]  74.83M  41.3MB/s               /dev/null            68%[============>       ]  88.24M  43.8MB/s               /dev/null            78%[==============>     ] 101.41M  45.8MB/s               /dev/null            88%[================>   ] 114.13M  47.3MB/s               /dev/null            97%[==================> ] 126.77M  48.5MB/s               /dev/null           100%[===================>] 129.44M  49.0MB/s    in 2.6s    

2018-03-27 18:32:41 (49.0 MB/s) - ‘/dev/null’ saved [135733206/135733206]

--2018-03-28 00:32:58--  https://mirror.hactar.xyz/iso/2018.03.01/archlinux-bootstrap-2018.03.01-x86_64.tar.gz
Resolving mirror.hactar.xyz (mirror.hactar.xyz)... 144.76.14.145, 2a01:4f8:190:9490::cafe
Connecting to mirror.hactar.xyz (mirror.hactar.xyz)|144.76.14.145|:443... connected.
HTTP request sent, awaiting response... 200 OK
Length: 135733206 (129M) [application/octet-stream]
Saving to: ‘/dev/null’

/dev/null             0%[                    ]       0  --.-KB/s               /dev/null             0%[                    ] 567.66K  2.77MB/s               /dev/null             2%[                    ]   3.02M  7.55MB/s               /dev/null             8%[>                   ]  10.93M  18.2MB/s               /dev/null            18%[==>                 ]  23.55M  29.4MB/s               /dev/null            27%[====>               ]  36.07M  36.0MB/s               /dev/null            37%[======>             ]  48.37M  40.3MB/s               /dev/null            46%[========>           ]  60.48M  43.2MB/s               /dev/null            56%[==========>         ]  72.68M  45.4MB/s               /dev/null            65%[============>       ]  85.40M  47.4MB/s               /dev/null            75%[==============>     ]  98.37M  49.1MB/s               /dev/null            85%[================>   ] 110.99M  50.4MB/s               /dev/null            95%[==================> ] 123.49M  51.4MB/s               /dev/null           100%[===================>] 129.44M  52.1MB/s    in 2.5s    

2018-03-28 00:33:00 (52.1 MB/s) - ‘/dev/null’ saved [135733206/135733206]

--2018-03-28 06:32:40--  https://mirror.hactar.xyz/iso/2018.03.01/archlinux-bootstrap-2018.03.01-x86_64.tar.gz
Resolving mirror.hactar.xyz (mirror.hactar.xyz)... 144.76.14.145, 2a01:4f8:190:9490::cafe
Connecting to mirror.hactar.xyz (mirror.hactar.xyz)|144.76.14.145|:443... connected.
HTTP request sent, awaiting response... 200 OK
Length: 135733206 (129M) [application/octet-stream]
Saving to: ‘/dev/null’

/dev/null             0%[                    ]       0  --.-KB/s               /dev/null             0%[                    ] 423.66K  2.00MB/s               /dev/null             1%[                    ]   2.02M  4.92MB/s               /dev/null             5%[>                   ]   7.16M  11.7MB/s               /dev/null            13%[=>                  ]  17.90M  22.0MB/s               /dev/null            23%[===>                ]  30.21M  29.8MB/s               /dev/null            32%[=====>              ]  42.71M  35.2MB/s               /dev/null            42%[=======>            ]  55.15M  39.0MB/s               /dev/null            52%[=========>          ]  67.49M  41.8MB/s               /dev/null            61%[===========>        ]  79.69M  43.9MB/s               /dev/null            71%[=============>      ]  91.91M  45.6MB/s               /dev/null            80%[===============>    ] 103.98M  46.9MB/s               /dev/null            89%[================>   ] 116.16M  48.1MB/s               /dev/null            99%[==================> ] 128.88M  49.3MB/s               /dev/null           100%[===================>] 129.44M  49.4MB/s    in 2.6s    

2018-03-28 06:32:43 (49.4 MB/s) - ‘/dev/null’ saved [135733206/135733206]

--2018-03-28 12:32:42--  https://mirror.hactar.xyz/iso/2018.03.01/archlinux-bootstrap-2018.03.01-x86_64.tar.gz
Resolving mirror.hactar.xyz (mirror.hactar.xyz)... 144.76.14.145, 2a01:4f8:190:9490::cafe
Connecting to mirror.hactar.xyz (mirror.hactar.xyz)|144.76.14.145|:443... connected.
HTTP request sent, awaiting response... 200 OK
Length: 135733206 (129M) [application/octet-stream]
Saving to: ‘/dev/null’

/dev/null             0%[                    ]       0  --.-KB/s               /dev/null             0%[                    ] 471.66K  2.24MB/s               /dev/null             1%[                    ]   2.48M  6.07MB/s               /dev/null             6%[>                   ]   8.15M  13.4MB/s               /dev/null            14%[=>                  ]  19.18M  23.7MB/s               /dev/null            24%[===>                ]  31.27M  30.9MB/s               /dev/null            33%[=====>              ]  43.07M  35.6MB/s               /dev/null            42%[=======>            ]  54.93M  38.9MB/s               /dev/null            51%[=========>          ]  66.40M  41.2MB/s               /dev/null            60%[===========>        ]  78.15M  43.1MB/s               /dev/null            69%[============>       ]  90.02M  44.8MB/s               /dev/null            78%[==============>     ] 101.99M  46.1MB/s               /dev/null            87%[================>   ] 113.76M  47.2MB/s               /dev/null            97%[==================> ] 125.66M  48.1MB/s               /dev/null           100%[===================>] 129.44M  48.7MB/s    in 2.7s    

2018-03-28 12:32:45 (48.7 MB/s) - ‘/dev/null’ saved [135733206/135733206]

--2018-03-28 18:33:47--  https://mirror.hactar.xyz/iso/2018.03.01/archlinux-bootstrap-2018.03.01-x86_64.tar.gz
Resolving mirror.hactar.xyz (mirror.hactar.xyz)... 144.76.14.145, 2a01:4f8:190:9490::cafe
Connecting to mirror.hactar.xyz (mirror.hactar.xyz)|144.76.14.145|:443... connected.
HTTP request sent, awaiting response... 200 OK
Length: 135733206 (129M) [application/octet-stream]
Saving to: ‘/dev/null’

/dev/null             0%[                    ]       0  --.-KB/s               /dev/null             0%[                    ] 519.66K  2.53MB/s               /dev/null             2%[                    ]   2.79M  6.96MB/s               /dev/null             7%[>                   ]   9.15M  15.2MB/s               /dev/null            16%[==>                 ]  21.19M  26.5MB/s               /dev/null            25%[====>               ]  33.04M  33.0MB/s               /dev/null            34%[=====>              ]  44.94M  37.4MB/s               /dev/null            43%[=======>            ]  56.51M  40.3MB/s               /dev/null            53%[=========>          ]  69.82M  43.6MB/s               /dev/null            63%[===========>        ]  82.55M  45.8MB/s               /dev/null            73%[=============>      ]  95.23M  47.5MB/s               /dev/null            83%[===============>    ] 107.57M  48.8MB/s               /dev/null            92%[=================>  ] 119.74M  49.8MB/s               /dev/null           100%[===================>] 129.44M  50.8MB/s    in 2.5s    

2018-03-28 18:33:50 (50.8 MB/s) - ‘/dev/null’ saved [135733206/135733206]

--2018-03-29 00:32:43--  https://mirror.hactar.xyz/iso/2018.03.01/archlinux-bootstrap-2018.03.01-x86_64.tar.gz
Resolving mirror.hactar.xyz (mirror.hactar.xyz)... 144.76.14.145, 2a01:4f8:190:9490::cafe
Connecting to mirror.hactar.xyz (mirror.hactar.xyz)|144.76.14.145|:443... connected.
HTTP request sent, awaiting response... 200 OK
Length: 135733206 (129M) [application/octet-stream]
Saving to: ‘/dev/null’

/dev/null             0%[                    ]       0  --.-KB/s               /dev/null             0%[                    ] 519.66K  2.52MB/s               /dev/null             1%[                    ]   2.55M  6.37MB/s               /dev/null             6%[>                   ]   8.65M  14.4MB/s               /dev/null            16%[==>                 ]  20.82M  26.0MB/s               /dev/null            25%[====>               ]  33.15M  33.1MB/s               /dev/null            35%[======>             ]  45.55M  37.9MB/s               /dev/null            44%[=======>            ]  57.71M  41.2MB/s               /dev/null            53%[=========>          ]  69.80M  43.6MB/s               /dev/null            63%[===========>        ]  81.87M  45.4MB/s               /dev/null            72%[=============>      ]  94.03M  47.0MB/s               /dev/null            82%[===============>    ] 106.24M  48.2MB/s               /dev/null            91%[=================>  ] 118.40M  49.3MB/s               /dev/null           100%[===================>] 129.44M  50.4MB/s    in 2.6s    

2018-03-29 00:32:46 (50.4 MB/s) - ‘/dev/null’ saved [135733206/135733206]

--2018-03-29 06:32:52--  https://mirror.hactar.xyz/iso/2018.03.01/archlinux-bootstrap-2018.03.01-x86_64.tar.gz
Resolving mirror.hactar.xyz (mirror.hactar.xyz)... 144.76.14.145, 2a01:4f8:190:9490::cafe
Connecting to mirror.hactar.xyz (mirror.hactar.xyz)|144.76.14.145|:443... connected.
HTTP request sent, awaiting response... 200 OK
Length: 135733206 (129M) [application/octet-stream]
Saving to: ‘/dev/null’

/dev/null             0%[                    ]       0  --.-KB/s               /dev/null             0%[                    ] 567.66K  2.77MB/s               /dev/null             2%[                    ]   2.90M  7.24MB/s               /dev/null             6%[>                   ]   8.88M  14.8MB/s               /dev/null            16%[==>                 ]  21.01M  26.2MB/s               /dev/null            25%[====>               ]  33.65M  33.6MB/s               /dev/null            35%[======>             ]  46.01M  38.3MB/s               /dev/null            45%[========>           ]  58.30M  41.6MB/s               /dev/null            54%[=========>          ]  70.51M  44.0MB/s               /dev/null            63%[===========>        ]  82.76M  45.9MB/s               /dev/null            73%[=============>      ]  94.85M  47.4MB/s               /dev/null            82%[===============>    ] 107.04M  48.6MB/s               /dev/null            92%[=================>  ] 119.10M  49.6MB/s               /dev/null           100%[===================>] 129.44M  50.7MB/s    in 2.6s    

2018-03-29 06:32:55 (50.7 MB/s) - ‘/dev/null’ saved [135733206/135733206]

--2018-03-29 12:32:46--  https://mirror.hactar.xyz/iso/2018.03.01/archlinux-bootstrap-2018.03.01-x86_64.tar.gz
Resolving mirror.hactar.xyz (mirror.hactar.xyz)... 144.76.14.145, 2a01:4f8:190:9490::cafe
Connecting to mirror.hactar.xyz (mirror.hactar.xyz)|144.76.14.145|:443... connected.
HTTP request sent, awaiting response... 200 OK
Length: 135733206 (129M) [application/octet-stream]
Saving to: ‘/dev/null’

/dev/null             0%[                    ]       0  --.-KB/s               /dev/null             0%[                    ] 551.66K  2.68MB/s               /dev/null             2%[                    ]   3.46M  8.62MB/s               /dev/null             9%[>                   ]  11.76M  19.5MB/s               /dev/null            18%[==>                 ]  24.40M  30.4MB/s               /dev/null            28%[====>               ]  37.05M  37.0MB/s               /dev/null            38%[======>             ]  49.63M  41.3MB/s               /dev/null            47%[========>           ]  61.98M  44.2MB/s               /dev/null            57%[==========>         ]  73.99M  46.2MB/s               /dev/null            66%[============>       ]  86.18M  47.8MB/s               /dev/null            75%[==============>     ]  98.30M  49.1MB/s               /dev/null            85%[================>   ] 110.40M  50.1MB/s               /dev/null            94%[=================>  ] 122.49M  51.0MB/s               /dev/null           100%[===================>] 129.44M  51.8MB/s    in 2.5s    

2018-03-29 12:32:49 (51.8 MB/s) - ‘/dev/null’ saved [135733206/135733206]

--2018-03-29 18:32:41--  https://mirror.hactar.xyz/iso/2018.03.01/archlinux-bootstrap-2018.03.01-x86_64.tar.gz
Resolving mirror.hactar.xyz (mirror.hactar.xyz)... 144.76.14.145, 2a01:4f8:190:9490::cafe
Connecting to mirror.hactar.xyz (mirror.hactar.xyz)|144.76.14.145|:443... connected.
HTTP request sent, awaiting response... 200 OK
Length: 135733206 (129M) [application/octet-stream]
Saving to: ‘/dev/null’

/dev/null             0%[                    ]       0  --.-KB/s               /dev/null             0%[                    ] 631.66K  3.06MB/s               /dev/null             3%[                    ]   4.55M  11.2MB/s               /dev/null            11%[=>                  ]  15.44M  25.5MB/s               /dev/null            21%[===>                ]  27.23M  33.8MB/s               /dev/null            30%[=====>              ]  38.87M  38.6MB/s               /dev/null            39%[======>             ]  50.74M  42.1MB/s               /dev/null            48%[========>           ]  62.46M  44.4MB/s               /dev/null            57%[==========>         ]  74.51M  46.4MB/s               /dev/null            66%[============>       ]  86.38M  47.8MB/s               /dev/null            76%[==============>     ]  98.44M  49.1MB/s               /dev/null            85%[================>   ] 110.32M  50.0MB/s               /dev/null            94%[=================>  ] 122.16M  50.8MB/s               /dev/null           100%[===================>] 129.44M  51.5MB/s    in 2.5s    

2018-03-29 18:32:44 (51.5 MB/s) - ‘/dev/null’ saved [135733206/135733206]

--2018-03-30 00:36:03--  https://mirror.hactar.xyz/iso/2018.03.01/archlinux-bootstrap-2018.03.01-x86_64.tar.gz
Resolving mirror.hactar.xyz (mirror.hactar.xyz)... 144.76.14.145, 2a01:4f8:190:9490::cafe
Connecting to mirror.hactar.xyz (mirror.hactar.xyz)|144.76.14.145|:443... connected.
HTTP request sent, awaiting response... 200 OK
Length: 135733206 (129M) [application/octet-stream]
Saving to: ‘/dev/null’

/dev/null             0%[                    ]       0  --.-KB/s               /dev/null             0%[                    ] 663.66K  3.20MB/s               /dev/null             2%[                    ]   3.68M  9.09MB/s               /dev/null             8%[>                   ]  10.58M  17.4MB/s               /dev/null            14%[=>                  ]  18.19M  22.5MB/s               /dev/null            20%[===>                ]  26.05M  25.9MB/s               /dev/null            26%[====>               ]  34.32M  28.4MB/s               /dev/null            32%[=====>              ]  41.54M  29.5MB/s               /dev/null            38%[======>             ]  50.10M  31.2MB/s               /dev/null            44%[=======>            ]  57.99M  32.0MB/s               /dev/null            47%[========>           ]  61.82M  30.7MB/s               /dev/null            49%[========>           ]  64.51M  29.1MB/s               /dev/null            59%[==========>         ]  76.98M  31.9MB/s               /dev/null            68%[============>       ]  88.82M  33.9MB/s               /dev/null            77%[==============>     ] 100.57M  35.7MB/s               /dev/null            86%[================>   ] 112.44M  37.3MB/s    eta 0s     /dev/null            95%[==================> ] 124.19M  38.6MB/s    eta 0s     /dev/null           100%[===================>] 129.44M  41.2MB/s    in 3.3s    

2018-03-30 00:36:06 (39.3 MB/s) - ‘/dev/null’ saved [135733206/135733206]

--2018-03-30 06:32:47--  https://mirror.hactar.xyz/iso/2018.03.01/archlinux-bootstrap-2018.03.01-x86_64.tar.gz
Resolving mirror.hactar.xyz (mirror.hactar.xyz)... 144.76.14.145, 2a01:4f8:190:9490::cafe
Connecting to mirror.hactar.xyz (mirror.hactar.xyz)|144.76.14.145|:443... connected.
HTTP request sent, awaiting response... 200 OK
Length: 135733206 (129M) [application/octet-stream]
Saving to: ‘/dev/null’

/dev/null             0%[                    ]       0  --.-KB/s               /dev/null             0%[                    ] 871.66K  4.20MB/s               /dev/null             3%[                    ]   4.54M  11.3MB/s               /dev/null            10%[=>                  ]  13.57M  22.5MB/s               /dev/null            19%[==>                 ]  24.74M  30.8MB/s               /dev/null            27%[====>               ]  35.98M  35.8MB/s               /dev/null            36%[======>             ]  47.12M  39.2MB/s               /dev/null            44%[=======>            ]  58.22M  41.5MB/s               /dev/null            53%[=========>          ]  69.27M  43.2MB/s               /dev/null            61%[===========>        ]  80.24M  44.5MB/s               /dev/null            70%[=============>      ]  91.38M  45.6MB/s               /dev/null            79%[==============>     ] 102.52M  46.5MB/s               /dev/null            87%[================>   ] 113.66M  47.3MB/s               /dev/null            96%[==================> ] 124.74M  47.9MB/s               /dev/null           100%[===================>] 129.44M  48.5MB/s    in 2.7s    

2018-03-30 06:32:50 (48.5 MB/s) - ‘/dev/null’ saved [135733206/135733206]

--2018-03-30 12:32:36--  https://mirror.hactar.xyz/iso/2018.03.01/archlinux-bootstrap-2018.03.01-x86_64.tar.gz
Resolving mirror.hactar.xyz (mirror.hactar.xyz)... 144.76.14.145, 2a01:4f8:190:9490::cafe
Connecting to mirror.hactar.xyz (mirror.hactar.xyz)|144.76.14.145|:443... connected.
HTTP request sent, awaiting response... 200 OK
Length: 135733206 (129M) [application/octet-stream]
Saving to: ‘/dev/null’

/dev/null             0%[                    ]       0  --.-KB/s               /dev/null             0%[                    ] 711.66K  3.40MB/s               /dev/null             3%[                    ]   4.33M  10.7MB/s               /dev/null            10%[=>                  ]  13.94M  22.9MB/s               /dev/null            20%[===>                ]  25.99M  32.2MB/s               /dev/null            29%[====>               ]  38.26M  38.0MB/s               /dev/null            38%[======>             ]  50.38M  41.7MB/s               /dev/null            48%[========>           ]  62.27M  44.2MB/s               /dev/null            57%[==========>         ]  74.35M  46.2MB/s               /dev/null            66%[============>       ]  86.68M  47.9MB/s               /dev/null            76%[==============>     ]  99.58M  49.6MB/s               /dev/null            86%[================>   ] 112.27M  50.8MB/s               /dev/null            96%[==================> ] 124.77M  51.8MB/s               /dev/null           100%[===================>] 129.44M  52.4MB/s    in 2.5s    

2018-03-30 12:32:39 (52.4 MB/s) - ‘/dev/null’ saved [135733206/135733206]

--2018-03-30 18:33:03--  https://mirror.hactar.xyz/iso/2018.03.01/archlinux-bootstrap-2018.03.01-x86_64.tar.gz
Resolving mirror.hactar.xyz (mirror.hactar.xyz)... 144.76.14.145, 2a01:4f8:190:9490::cafe
Connecting to mirror.hactar.xyz (mirror.hactar.xyz)|144.76.14.145|:443... connected.
HTTP request sent, awaiting response... 200 OK
Length: 135733206 (129M) [application/octet-stream]
Saving to: ‘/dev/null’

/dev/null             0%[                    ]       0  --.-KB/s               /dev/null             0%[                    ] 695.66K  3.31MB/s               /dev/null             3%[                    ]   4.15M  10.2MB/s               /dev/null            12%[=>                  ]  15.76M  26.0MB/s               /dev/null            21%[===>                ]  27.63M  34.2MB/s               /dev/null            29%[====>               ]  38.35M  38.1MB/s               /dev/null            37%[======>             ]  49.04M  40.6MB/s               /dev/null            45%[========>           ]  59.38M  42.1MB/s               /dev/null            54%[=========>          ]  70.83M  44.0MB/s               /dev/null            64%[===========>        ]  83.05M  45.9MB/s               /dev/null            73%[=============>      ]  95.50M  47.5MB/s               /dev/null            83%[===============>    ] 108.17M  48.9MB/s               /dev/null            93%[=================>  ] 120.73M  50.1MB/s               /dev/null           100%[===================>] 129.44M  51.1MB/s    in 2.5s    

2018-03-30 18:33:06 (51.1 MB/s) - ‘/dev/null’ saved [135733206/135733206]

--2018-03-31 00:38:08--  https://mirror.hactar.xyz/iso/2018.03.01/archlinux-bootstrap-2018.03.01-x86_64.tar.gz
Resolving mirror.hactar.xyz (mirror.hactar.xyz)... 144.76.14.145, 2a01:4f8:190:9490::cafe
Connecting to mirror.hactar.xyz (mirror.hactar.xyz)|144.76.14.145|:443... connected.
HTTP request sent, awaiting response... 200 OK
Length: 135733206 (129M) [application/octet-stream]
Saving to: ‘/dev/null’

/dev/null             0%[                    ]       0  --.-KB/s               /dev/null             0%[                    ] 903.66K  4.36MB/s               /dev/null             3%[                    ]   4.71M  11.7MB/s               /dev/null            10%[=>                  ]  13.94M  23.1MB/s               /dev/null            19%[==>                 ]  25.79M  32.1MB/s               /dev/null            29%[====>               ]  38.16M  38.1MB/s               /dev/null            38%[======>             ]  50.30M  41.8MB/s               /dev/null            48%[========>           ]  62.48M  44.5MB/s               /dev/null            57%[==========>         ]  75.05M  46.8MB/s               /dev/null            67%[============>       ]  87.80M  48.7MB/s               /dev/null            77%[==============>     ] 100.13M  50.0MB/s               /dev/null            86%[================>   ] 112.24M  50.9MB/s               /dev/null            96%[==================> ] 124.33M  51.7MB/s               /dev/null           100%[===================>] 129.44M  52.4MB/s    in 2.5s    

2018-03-31 00:38:10 (52.4 MB/s) - ‘/dev/null’ saved [135733206/135733206]

--2018-03-31 06:32:33--  https://mirror.hactar.xyz/iso/2018.03.01/archlinux-bootstrap-2018.03.01-x86_64.tar.gz
Resolving mirror.hactar.xyz (mirror.hactar.xyz)... 144.76.14.145, 2a01:4f8:190:9490::cafe
Connecting to mirror.hactar.xyz (mirror.hactar.xyz)|144.76.14.145|:443... connected.
HTTP request sent, awaiting response... 200 OK
Length: 135733206 (129M) [application/octet-stream]
Saving to: ‘/dev/null’

/dev/null             0%[                    ]       0  --.-KB/s               /dev/null             0%[                    ] 871.66K  4.22MB/s               /dev/null             4%[                    ]   5.19M  12.9MB/s               /dev/null            12%[=>                  ]  16.73M  27.8MB/s               /dev/null            22%[===>                ]  28.91M  36.0MB/s               /dev/null            31%[=====>              ]  41.41M  41.3MB/s               /dev/null            41%[=======>            ]  53.48M  44.5MB/s               /dev/null            51%[=========>          ]  66.13M  47.1MB/s               /dev/null            60%[===========>        ]  78.48M  49.0MB/s               /dev/null            69%[============>       ]  90.51M  50.2MB/s               /dev/null            79%[==============>     ] 103.07M  51.4MB/s               /dev/null            89%[================>   ] 115.85M  52.6MB/s               /dev/null            99%[==================> ] 129.41M  53.8MB/s               /dev/null           100%[===================>] 129.44M  53.3MB/s    in 2.4s    

2018-03-31 06:32:36 (53.3 MB/s) - ‘/dev/null’ saved [135733206/135733206]

--2018-03-31 12:32:35--  https://mirror.hactar.xyz/iso/2018.03.01/archlinux-bootstrap-2018.03.01-x86_64.tar.gz
Resolving mirror.hactar.xyz (mirror.hactar.xyz)... 144.76.14.145, 2a01:4f8:190:9490::cafe
Connecting to mirror.hactar.xyz (mirror.hactar.xyz)|144.76.14.145|:443... connected.
HTTP request sent, awaiting response... 200 OK
Length: 135733206 (129M) [application/octet-stream]
Saving to: ‘/dev/null’

/dev/null             0%[                    ]       0  --.-KB/s               /dev/null             0%[                    ] 663.66K  3.20MB/s               /dev/null             3%[                    ]   3.90M  9.67MB/s               /dev/null            10%[=>                  ]  13.73M  22.7MB/s               /dev/null            19%[==>                 ]  25.40M  31.6MB/s               /dev/null            29%[====>               ]  37.57M  37.4MB/s               /dev/null            38%[======>             ]  49.65M  41.2MB/s               /dev/null            47%[========>           ]  61.68M  43.9MB/s               /dev/null            57%[==========>         ]  73.87M  46.0MB/s               /dev/null            66%[============>       ]  85.82M  47.6MB/s               /dev/null            75%[==============>     ]  98.01M  48.9MB/s               /dev/null            85%[================>   ] 110.30M  50.0MB/s               /dev/null            94%[=================>  ] 122.57M  51.0MB/s               /dev/null           100%[===================>] 129.44M  51.9MB/s    in 2.5s    

2018-03-31 12:32:38 (51.9 MB/s) - ‘/dev/null’ saved [135733206/135733206]

--2018-03-31 18:33:34--  https://mirror.hactar.xyz/iso/2018.03.01/archlinux-bootstrap-2018.03.01-x86_64.tar.gz
Resolving mirror.hactar.xyz (mirror.hactar.xyz)... 144.76.14.145, 2a01:4f8:190:9490::cafe
Connecting to mirror.hactar.xyz (mirror.hactar.xyz)|144.76.14.145|:443... connected.
HTTP request sent, awaiting response... 200 OK
Length: 135733206 (129M) [application/octet-stream]
Saving to: ‘/dev/null’

/dev/null             0%[                    ]       0  --.-KB/s               /dev/null             0%[                    ] 871.66K  4.19MB/s               /dev/null             4%[                    ]   5.47M  13.6MB/s               /dev/null            12%[=>                  ]  16.65M  27.6MB/s               /dev/null            22%[===>                ]  28.58M  35.6MB/s               /dev/null            31%[=====>              ]  40.85M  40.7MB/s               /dev/null            41%[=======>            ]  53.30M  44.3MB/s               /dev/null            51%[=========>          ]  66.18M  47.1MB/s               /dev/null            60%[===========>        ]  78.83M  49.1MB/s               /dev/null            70%[=============>      ]  91.24M  50.6MB/s               /dev/null            79%[==============>     ] 103.49M  51.6MB/s               /dev/null            89%[================>   ] 115.68M  52.5MB/s               /dev/null            99%[==================> ] 129.08M  53.7MB/s               /dev/null           100%[===================>] 129.44M  53.8MB/s    in 2.4s    

2018-03-31 18:33:37 (53.8 MB/s) - ‘/dev/null’ saved [135733206/135733206]

--2018-04-01 00:39:28--  https://mirror.hactar.xyz/iso/2018.03.01/archlinux-bootstrap-2018.03.01-x86_64.tar.gz
Resolving mirror.hactar.xyz (mirror.hactar.xyz)... 144.76.14.145, 2a01:4f8:190:9490::cafe
Connecting to mirror.hactar.xyz (mirror.hactar.xyz)|144.76.14.145|:443... connected.
HTTP request sent, awaiting response... 200 OK
Length: 135733206 (129M) [application/octet-stream]
Saving to: ‘/dev/null’

/dev/null             0%[                    ]       0  --.-KB/s               /dev/null             0%[                    ] 727.66K  3.47MB/s               /dev/null             3%[                    ]   4.82M  11.9MB/s               /dev/null            11%[=>                  ]  14.77M  24.3MB/s               /dev/null            20%[===>                ]  26.60M  33.0MB/s               /dev/null            30%[=====>              ]  38.93M  38.7MB/s               /dev/null            39%[======>             ]  51.07M  42.3MB/s               /dev/null            48%[========>           ]  63.16M  44.9MB/s               /dev/null            58%[==========>         ]  75.18M  46.8MB/s               /dev/null            67%[============>       ]  87.23M  48.3MB/s               /dev/null            76%[==============>     ]  99.29M  49.4MB/s               /dev/null            86%[================>   ] 111.35M  50.4MB/s               /dev/null            95%[==================> ] 123.37M  51.2MB/s               /dev/null           100%[===================>] 129.44M  52.0MB/s    in 2.5s    

2018-04-01 00:39:31 (52.0 MB/s) - ‘/dev/null’ saved [135733206/135733206]

--2018-04-01 07:17:07--  https://mirror.hactar.xyz/iso/2018.03.01/archlinux-bootstrap-2018.03.01-x86_64.tar.gz
Resolving mirror.hactar.xyz (mirror.hactar.xyz)... 144.76.14.145, 2a01:4f8:190:9490::cafe
Connecting to mirror.hactar.xyz (mirror.hactar.xyz)|144.76.14.145|:443... connected.
HTTP request sent, awaiting response... 200 OK
Length: 135733206 (129M) [application/octet-stream]
Saving to: ‘/dev/null’

/dev/null             0%[                    ]       0  --.-KB/s               /dev/null             0%[                    ] 647.66K  3.10MB/s               /dev/null             3%[                    ]   4.79M  11.9MB/s               /dev/null            12%[=>                  ]  16.54M  27.4MB/s               /dev/null            22%[===>                ]  28.51M  35.5MB/s               /dev/null            31%[=====>              ]  40.80M  40.6MB/s               /dev/null            41%[=======>            ]  53.10M  44.1MB/s               /dev/null            50%[=========>          ]  65.58M  46.7MB/s               /dev/null            60%[===========>        ]  78.90M  49.2MB/s               /dev/null            71%[=============>      ]  92.04M  51.0MB/s               /dev/null            80%[===============>    ] 104.82M  52.3MB/s               /dev/null            90%[=================>  ] 117.12M  53.1MB/s               /dev/null           100%[===================>] 129.44M  54.2MB/s    in 2.4s    

2018-04-01 07:17:10 (54.2 MB/s) - ‘/dev/null’ saved [135733206/135733206]

--2018-04-01 13:17:00--  https://mirror.hactar.xyz/iso/2018.03.01/archlinux-bootstrap-2018.03.01-x86_64.tar.gz
Resolving mirror.hactar.xyz (mirror.hactar.xyz)... 144.76.14.145, 2a01:4f8:190:9490::cafe
Connecting to mirror.hactar.xyz (mirror.hactar.xyz)|144.76.14.145|:443... connected.
HTTP request sent, awaiting response... 200 OK
Length: 135733206 (129M) [application/octet-stream]
Saving to: ‘/dev/null’

/dev/null             0%[                    ]       0  --.-KB/s               /dev/null             0%[                    ] 791.66K  3.84MB/s               /dev/null             4%[                    ]   5.74M  14.3MB/s               /dev/null            10%[=>                  ]  13.46M  22.3MB/s               /dev/null            15%[==>                 ]  20.43M  25.5MB/s               /dev/null            21%[===>                ]  27.58M  27.5MB/s               /dev/null            26%[====>               ]  34.57M  28.7MB/s               /dev/null            32%[=====>              ]  41.77M  29.7MB/s               /dev/null            38%[======>             ]  49.19M  30.6MB/s               /dev/null            43%[=======>            ]  56.19M  31.1MB/s               /dev/null            49%[========>           ]  63.62M  31.6MB/s               /dev/null            54%[=========>          ]  70.85M  32.0MB/s               /dev/null            60%[===========>        ]  78.02M  32.3MB/s               /dev/null            66%[============>       ]  85.98M  32.8MB/s               /dev/null            73%[=============>      ]  94.60M  33.5MB/s               /dev/null            79%[==============>     ] 102.66M  34.0MB/s    eta 1s     /dev/null            85%[================>   ] 110.42M  35.9MB/s    eta 1s     /dev/null            92%[=================>  ] 119.68M  37.6MB/s    eta 1s     /dev/null           100%[===================>] 129.44M  38.9MB/s    in 3.6s    

2018-04-01 13:17:04 (36.3 MB/s) - ‘/dev/null’ saved [135733206/135733206]

--2018-04-01 19:16:36--  https://mirror.hactar.xyz/iso/2018.03.01/archlinux-bootstrap-2018.03.01-x86_64.tar.gz
Resolving mirror.hactar.xyz (mirror.hactar.xyz)... 144.76.14.145, 2a01:4f8:190:9490::cafe
Connecting to mirror.hactar.xyz (mirror.hactar.xyz)|144.76.14.145|:443... connected.
HTTP request sent, awaiting response... 200 OK
Length: 135733206 (129M) [application/octet-stream]
Saving to: ‘/dev/null’

/dev/null             0%[                    ]       0  --.-KB/s               /dev/null             0%[                    ] 743.66K  3.54MB/s               /dev/null             3%[                    ]   3.93M  9.64MB/s               /dev/null             9%[>                   ]  12.27M  20.1MB/s               /dev/null            18%[==>                 ]  23.80M  29.4MB/s               /dev/null            27%[====>               ]  35.73M  35.4MB/s               /dev/null            36%[======>             ]  47.82M  39.5MB/s               /dev/null            46%[========>           ]  60.37M  42.8MB/s               /dev/null            56%[==========>         ]  73.33M  45.5MB/s               /dev/null            66%[============>       ]  86.13M  47.6MB/s               /dev/null            76%[==============>     ]  98.80M  49.1MB/s               /dev/null            86%[================>   ] 111.98M  50.7MB/s               /dev/null            96%[==================> ] 124.88M  51.8MB/s               /dev/null           100%[===================>] 129.44M  52.5MB/s    in 2.5s    

2018-04-01 19:16:38 (52.5 MB/s) - ‘/dev/null’ saved [135733206/135733206]

--2018-04-02 01:17:03--  https://mirror.hactar.xyz/iso/2018.03.01/archlinux-bootstrap-2018.03.01-x86_64.tar.gz
Resolving mirror.hactar.xyz (mirror.hactar.xyz)... 144.76.14.145, 2a01:4f8:190:9490::cafe
Connecting to mirror.hactar.xyz (mirror.hactar.xyz)|144.76.14.145|:443... connected.
HTTP request sent, awaiting response... 200 OK
Length: 135733206 (129M) [application/octet-stream]
Saving to: ‘/dev/null’

/dev/null             0%[                    ]       0  --.-KB/s               /dev/null             0%[                    ] 535.66K  2.55MB/s               /dev/null             2%[                    ]   3.05M  7.49MB/s               /dev/null            10%[=>                  ]  13.32M  21.9MB/s               /dev/null            19%[==>                 ]  24.90M  30.8MB/s               /dev/null            28%[====>               ]  36.93M  36.6MB/s               /dev/null            37%[======>             ]  48.99M  40.5MB/s               /dev/null            47%[========>           ]  61.03M  43.3MB/s               /dev/null            56%[==========>         ]  73.23M  45.5MB/s               /dev/null            65%[============>       ]  85.31M  47.2MB/s               /dev/null            75%[==============>     ]  97.44M  48.5MB/s               /dev/null            84%[===============>    ] 109.57M  49.6MB/s               /dev/null            93%[=================>  ] 121.65M  50.5MB/s               /dev/null           100%[===================>] 129.44M  51.4MB/s    in 2.5s    

2018-04-02 01:17:06 (51.4 MB/s) - ‘/dev/null’ saved [135733206/135733206]

--2018-04-02 06:32:37--  https://mirror.hactar.xyz/iso/2018.03.01/archlinux-bootstrap-2018.03.01-x86_64.tar.gz
Resolving mirror.hactar.xyz (mirror.hactar.xyz)... 144.76.14.145, 2a01:4f8:190:9490::cafe
Connecting to mirror.hactar.xyz (mirror.hactar.xyz)|144.76.14.145|:443... connected.
HTTP request sent, awaiting response... 200 OK
Length: 135733206 (129M) [application/octet-stream]
Saving to: ‘/dev/null’

/dev/null             0%[                    ]       0  --.-KB/s               /dev/null             0%[                    ] 663.66K  3.21MB/s               /dev/null             3%[                    ]   4.52M  11.2MB/s               /dev/null            11%[=>                  ]  14.74M  24.5MB/s               /dev/null            20%[===>                ]  26.77M  33.4MB/s               /dev/null            30%[=====>              ]  39.08M  39.0MB/s               /dev/null            39%[======>             ]  51.38M  42.7MB/s               /dev/null            49%[========>           ]  63.68M  45.4MB/s               /dev/null            58%[==========>         ]  75.94M  47.4MB/s               /dev/null            68%[============>       ]  88.29M  49.0MB/s               /dev/null            77%[==============>     ] 100.69M  50.3MB/s               /dev/null            87%[================>   ] 113.10M  51.3MB/s               /dev/null            96%[==================> ] 125.48M  52.2MB/s               /dev/null           100%[===================>] 129.44M  52.8MB/s    in 2.5s    

2018-04-02 06:32:40 (52.8 MB/s) - ‘/dev/null’ saved [135733206/135733206]

--2018-04-02 12:32:43--  https://mirror.hactar.xyz/iso/2018.03.01/archlinux-bootstrap-2018.03.01-x86_64.tar.gz
Resolving mirror.hactar.xyz (mirror.hactar.xyz)... 144.76.14.145, 2a01:4f8:190:9490::cafe
Connecting to mirror.hactar.xyz (mirror.hactar.xyz)|144.76.14.145|:443... connected.
HTTP request sent, awaiting response... 200 OK
Length: 135733206 (129M) [application/octet-stream]
Saving to: ‘/dev/null’

/dev/null             0%[                    ]       0  --.-KB/s               /dev/null             0%[                    ] 711.66K  3.40MB/s               /dev/null             3%[                    ]   4.49M  11.0MB/s               /dev/null            11%[=>                  ]  14.90M  24.5MB/s               /dev/null            20%[===>                ]  26.93M  33.4MB/s               /dev/null            30%[=====>              ]  39.23M  38.9MB/s               /dev/null            39%[======>             ]  51.35M  42.5MB/s               /dev/null            49%[========>           ]  63.44M  45.1MB/s               /dev/null            58%[==========>         ]  75.60M  47.0MB/s               /dev/null            67%[============>       ]  87.74M  48.5MB/s               /dev/null            77%[==============>     ]  99.94M  49.8MB/s               /dev/null            86%[================>   ] 112.10M  50.8MB/s               /dev/null            96%[==================> ] 124.27M  51.6MB/s               /dev/null           100%[===================>] 129.44M  52.1MB/s    in 2.5s    

2018-04-02 12:32:45 (52.1 MB/s) - ‘/dev/null’ saved [135733206/135733206]

--2018-04-02 18:33:03--  https://mirror.hactar.xyz/iso/2018.03.01/archlinux-bootstrap-2018.03.01-x86_64.tar.gz
Resolving mirror.hactar.xyz (mirror.hactar.xyz)... 144.76.14.145, 2a01:4f8:190:9490::cafe
Connecting to mirror.hactar.xyz (mirror.hactar.xyz)|144.76.14.145|:443... connected.
HTTP request sent, awaiting response... 200 OK
Length: 135733206 (129M) [application/octet-stream]
Saving to: ‘/dev/null’

/dev/null             0%[                    ]       0  --.-KB/s               /dev/null             0%[                    ] 583.66K  2.77MB/s               /dev/null             2%[                    ]   3.07M  7.54MB/s               /dev/null             8%[>                   ]  10.87M  17.9MB/s               /dev/null            17%[==>                 ]  22.74M  28.1MB/s               /dev/null            26%[====>               ]  34.65M  34.4MB/s               /dev/null            36%[======>             ]  46.71M  38.6MB/s               /dev/null            45%[========>           ]  58.65M  41.6MB/s               /dev/null            54%[=========>          ]  70.73M  44.0MB/s               /dev/null            62%[===========>        ]  80.41M  44.4MB/s               /dev/null            72%[=============>      ]  93.49M  46.5MB/s               /dev/null            82%[===============>    ] 106.21M  48.1MB/s               /dev/null            91%[=================>  ] 118.71M  49.3MB/s               /dev/null           100%[===================>] 129.44M  50.4MB/s    in 2.6s    

2018-04-02 18:33:06 (50.4 MB/s) - ‘/dev/null’ saved [135733206/135733206]

--2018-04-03 00:39:00--  https://mirror.hactar.xyz/iso/2018.03.01/archlinux-bootstrap-2018.03.01-x86_64.tar.gz
Resolving mirror.hactar.xyz (mirror.hactar.xyz)... 144.76.14.145, 2a01:4f8:190:9490::cafe
Connecting to mirror.hactar.xyz (mirror.hactar.xyz)|144.76.14.145|:443... connected.
HTTP request sent, awaiting response... 200 OK
Length: 135733206 (129M) [application/octet-stream]
Saving to: ‘/dev/null’

/dev/null             0%[                    ]       0  --.-KB/s               /dev/null             0%[                    ] 775.66K  3.76MB/s               /dev/null             4%[                    ]   5.74M  14.3MB/s               /dev/null            13%[=>                  ]  17.12M  28.4MB/s               /dev/null            21%[===>                ]  28.46M  35.5MB/s               /dev/null            31%[=====>              ]  40.23M  40.1MB/s               /dev/null            40%[=======>            ]  52.65M  43.8MB/s               /dev/null            50%[=========>          ]  65.19M  46.5MB/s               /dev/null            59%[==========>         ]  77.35M  48.3MB/s               /dev/null            69%[============>       ]  89.46M  49.6MB/s               /dev/null            78%[==============>     ] 101.43M  50.6MB/s               /dev/null            87%[================>   ] 113.44M  51.5MB/s               /dev/null            96%[==================> ] 125.13M  52.1MB/s               /dev/null           100%[===================>] 129.44M  52.6MB/s    in 2.5s    

2018-04-03 00:39:02 (52.6 MB/s) - ‘/dev/null’ saved [135733206/135733206]

--2018-04-03 06:32:52--  https://mirror.hactar.xyz/iso/2018.03.01/archlinux-bootstrap-2018.03.01-x86_64.tar.gz
Resolving mirror.hactar.xyz (mirror.hactar.xyz)... 144.76.14.145, 2a01:4f8:190:9490::cafe
Connecting to mirror.hactar.xyz (mirror.hactar.xyz)|144.76.14.145|:443... connected.
HTTP request sent, awaiting response... 200 OK
Length: 135733206 (129M) [application/octet-stream]
Saving to: ‘/dev/null’

/dev/null             0%[                    ]       0  --.-KB/s               /dev/null             0%[                    ] 823.66K  3.93MB/s               /dev/null             3%[                    ]   5.16M  12.7MB/s               /dev/null            12%[=>                  ]  16.01M  26.4MB/s               /dev/null            21%[===>                ]  27.76M  34.4MB/s               /dev/null            30%[=====>              ]  39.80M  39.5MB/s               /dev/null            40%[=======>            ]  51.79M  42.9MB/s               /dev/null            48%[========>           ]  63.26M  45.0MB/s               /dev/null            58%[==========>         ]  76.01M  47.3MB/s               /dev/null            68%[============>       ]  88.69M  49.1MB/s               /dev/null            78%[==============>     ] 101.16M  50.4MB/s               /dev/null            87%[================>   ] 113.40M  51.4MB/s               /dev/null            96%[==================> ] 125.02M  51.9MB/s               /dev/null           100%[===================>] 129.44M  52.6MB/s    in 2.5s    

2018-04-03 06:32:55 (52.6 MB/s) - ‘/dev/null’ saved [135733206/135733206]

--2018-04-03 12:32:49--  https://mirror.hactar.xyz/iso/2018.03.01/archlinux-bootstrap-2018.03.01-x86_64.tar.gz
Resolving mirror.hactar.xyz (mirror.hactar.xyz)... 144.76.14.145, 2a01:4f8:190:9490::cafe
Connecting to mirror.hactar.xyz (mirror.hactar.xyz)|144.76.14.145|:443... connected.
HTTP request sent, awaiting response... 200 OK
Length: 135733206 (129M) [application/octet-stream]
Saving to: ‘/dev/null’

/dev/null             0%[                    ]       0  --.-KB/s               /dev/null             0%[                    ] 695.66K  3.36MB/s               /dev/null             3%[                    ]   3.99M  9.91MB/s               /dev/null            10%[=>                  ]  13.88M  23.0MB/s               /dev/null            20%[===>                ]  26.05M  32.4MB/s               /dev/null            29%[====>               ]  38.41M  38.3MB/s               /dev/null            39%[======>             ]  50.63M  42.1MB/s               /dev/null            48%[========>           ]  62.73M  44.7MB/s               /dev/null            57%[==========>         ]  74.83M  46.7MB/s               /dev/null            67%[============>       ]  86.83M  48.1MB/s               /dev/null            76%[==============>     ]  98.76M  49.3MB/s               /dev/null            85%[================>   ] 110.87M  50.3MB/s               /dev/null            94%[=================>  ] 122.90M  51.1MB/s               /dev/null           100%[===================>] 129.44M  51.9MB/s    in 2.5s    

2018-04-03 12:32:52 (51.9 MB/s) - ‘/dev/null’ saved [135733206/135733206]

--2018-04-03 18:40:56--  https://mirror.hactar.xyz/iso/2018.03.01/archlinux-bootstrap-2018.03.01-x86_64.tar.gz
Resolving mirror.hactar.xyz (mirror.hactar.xyz)... 144.76.14.145, 2a01:4f8:190:9490::cafe
Connecting to mirror.hactar.xyz (mirror.hactar.xyz)|144.76.14.145|:443... connected.
HTTP request sent, awaiting response... 200 OK
Length: 135733206 (129M) [application/octet-stream]
Saving to: ‘/dev/null’

/dev/null             0%[                    ]       0  --.-KB/s               /dev/null             0%[                    ]   1016K  4.91MB/s               /dev/null             4%[                    ]   5.68M  14.1MB/s               /dev/null            12%[=>                  ]  15.80M  26.2MB/s               /dev/null            21%[===>                ]  27.74M  34.5MB/s               /dev/null            30%[=====>              ]  39.58M  39.5MB/s               /dev/null            37%[======>             ]  48.37M  40.2MB/s               /dev/null            43%[=======>            ]  55.99M  39.8MB/s               /dev/null            49%[========>           ]  63.65M  39.5MB/s               /dev/null            56%[==========>         ]  72.91M  40.3MB/s               /dev/null            65%[============>       ]  85.24M  42.4MB/s               /dev/null            75%[==============>     ]  97.26M  44.0MB/s               /dev/null            84%[===============>    ] 109.33M  45.4MB/s               /dev/null            93%[=================>  ] 121.58M  46.6MB/s               /dev/null           100%[===================>] 129.44M  47.5MB/s    in 2.7s    

2018-04-03 18:41:00 (47.5 MB/s) - ‘/dev/null’ saved [135733206/135733206]

--2018-04-04 00:40:11--  https://mirror.hactar.xyz/iso/2018.03.01/archlinux-bootstrap-2018.03.01-x86_64.tar.gz
Resolving mirror.hactar.xyz (mirror.hactar.xyz)... 144.76.14.145, 2a01:4f8:190:9490::cafe
Connecting to mirror.hactar.xyz (mirror.hactar.xyz)|144.76.14.145|:443... connected.
HTTP request sent, awaiting response... 200 OK
Length: 135733206 (129M) [application/octet-stream]
Saving to: ‘/dev/null’

/dev/null             0%[                    ]       0  --.-KB/s               /dev/null             0%[                    ] 775.66K  3.68MB/s               /dev/null             3%[                    ]   4.69M  11.5MB/s               /dev/null            11%[=>                  ]  15.02M  24.7MB/s               /dev/null            20%[===>                ]  26.91M  33.3MB/s               /dev/null            30%[=====>              ]  39.18M  38.9MB/s               /dev/null            39%[======>             ]  51.29M  42.5MB/s               /dev/null            49%[========>           ]  63.43M  45.0MB/s               /dev/null            58%[==========>         ]  75.32M  46.8MB/s               /dev/null            67%[============>       ]  87.19M  48.2MB/s               /dev/null            76%[==============>     ]  99.08M  49.3MB/s               /dev/null            85%[================>   ] 111.16M  50.3MB/s               /dev/null            95%[==================> ] 123.71M  51.4MB/s               /dev/null           100%[===================>] 129.44M  52.1MB/s    in 2.5s    

2018-04-04 00:40:13 (52.1 MB/s) - ‘/dev/null’ saved [135733206/135733206]

--2018-04-04 06:40:57--  https://mirror.hactar.xyz/iso/2018.03.01/archlinux-bootstrap-2018.03.01-x86_64.tar.gz
Resolving mirror.hactar.xyz (mirror.hactar.xyz)... 144.76.14.145, 2a01:4f8:190:9490::cafe
Connecting to mirror.hactar.xyz (mirror.hactar.xyz)|144.76.14.145|:443... connected.
HTTP request sent, awaiting response... 200 OK
Length: 135733206 (129M) [application/octet-stream]
Saving to: ‘/dev/null’

/dev/null             0%[                    ]       0  --.-KB/s               /dev/null             0%[                    ] 695.66K  3.35MB/s               /dev/null             3%[                    ]   4.80M  11.9MB/s               /dev/null            12%[=>                  ]  16.38M  27.2MB/s               /dev/null            21%[===>                ]  27.68M  34.5MB/s               /dev/null            30%[=====>              ]  39.93M  39.8MB/s               /dev/null            40%[=======>            ]  51.85M  43.1MB/s               /dev/null            46%[========>           ]  60.13M  42.8MB/s               /dev/null            51%[=========>          ]  66.69M  41.6MB/s               /dev/null            61%[===========>        ]  79.40M  44.0MB/s               /dev/null            70%[=============>      ]  91.48M  45.6MB/s               /dev/null            80%[===============>    ] 104.29M  47.3MB/s               /dev/null            90%[=================>  ] 117.05M  48.7MB/s               /dev/null           100%[===================>] 129.44M  50.0MB/s    in 2.6s    

2018-04-04 06:40:59 (50.0 MB/s) - ‘/dev/null’ saved [135733206/135733206]

--2018-04-04 12:39:57--  https://mirror.hactar.xyz/iso/2018.03.01/archlinux-bootstrap-2018.03.01-x86_64.tar.gz
Resolving mirror.hactar.xyz (mirror.hactar.xyz)... 144.76.14.145, 2a01:4f8:190:9490::cafe
Connecting to mirror.hactar.xyz (mirror.hactar.xyz)|144.76.14.145|:443... connected.
HTTP request sent, awaiting response... 200 OK
Length: 135733206 (129M) [application/octet-stream]
Saving to: ‘/dev/null’

/dev/null             0%[                    ]       0  --.-KB/s               /dev/null             0%[                    ] 695.66K  3.37MB/s               /dev/null             3%[                    ]   4.01M  10.0MB/s               /dev/null             9%[>                   ]  12.69M  21.1MB/s               /dev/null            18%[==>                 ]  23.98M  29.9MB/s               /dev/null            27%[====>               ]  35.94M  35.9MB/s               /dev/null            36%[======>             ]  47.85M  39.8MB/s               /dev/null            46%[========>           ]  59.77M  42.6MB/s               /dev/null            55%[==========>         ]  71.74M  44.8MB/s               /dev/null            64%[===========>        ]  83.79M  46.5MB/s               /dev/null            74%[=============>      ]  95.85M  47.9MB/s               /dev/null            83%[===============>    ] 107.96M  49.0MB/s               /dev/null            88%[================>   ] 114.58M  47.6MB/s               /dev/null            96%[==================> ] 124.69M  47.8MB/s               /dev/null           100%[===================>] 129.44M  48.5MB/s    in 2.7s    

2018-04-04 12:40:00 (48.5 MB/s) - ‘/dev/null’ saved [135733206/135733206]

--2018-04-04 18:40:29--  https://mirror.hactar.xyz/iso/2018.03.01/archlinux-bootstrap-2018.03.01-x86_64.tar.gz
Resolving mirror.hactar.xyz (mirror.hactar.xyz)... 144.76.14.145, 2a01:4f8:190:9490::cafe
Connecting to mirror.hactar.xyz (mirror.hactar.xyz)|144.76.14.145|:443... connected.
HTTP request sent, awaiting response... 200 OK
Length: 135733206 (129M) [application/octet-stream]
Saving to: ‘/dev/null’

/dev/null             0%[                    ]       0  --.-KB/s               /dev/null             0%[                    ] 743.66K  3.57MB/s               /dev/null             3%[                    ]   4.08M  10.1MB/s               /dev/null            11%[=>                  ]  14.62M  24.2MB/s               /dev/null            20%[===>                ]  26.66M  33.1MB/s               /dev/null            30%[=====>              ]  39.01M  38.8MB/s               /dev/null            39%[======>             ]  51.52M  42.8MB/s               /dev/null            49%[========>           ]  64.12M  45.6MB/s               /dev/null            59%[==========>         ]  76.79M  47.8MB/s               /dev/null            64%[===========>        ]  83.93M  46.5MB/s               /dev/null            70%[=============>      ]  91.30M  45.5MB/s               /dev/null            80%[===============>    ] 103.57M  47.0MB/s               /dev/null            89%[================>   ] 116.33M  48.4MB/s               /dev/null           100%[===================>] 129.44M  49.9MB/s    in 2.6s    

2018-04-04 18:40:32 (49.9 MB/s) - ‘/dev/null’ saved [135733206/135733206]

--2018-04-05 00:40:50--  https://mirror.hactar.xyz/iso/2018.03.01/archlinux-bootstrap-2018.03.01-x86_64.tar.gz
Resolving mirror.hactar.xyz (mirror.hactar.xyz)... 144.76.14.145, 2a01:4f8:190:9490::cafe
Connecting to mirror.hactar.xyz (mirror.hactar.xyz)|144.76.14.145|:443... connected.
HTTP request sent, awaiting response... 200 OK
Length: 135733206 (129M) [application/octet-stream]
Saving to: ‘/dev/null’

/dev/null             0%[                    ]       0  --.-KB/s               /dev/null             0%[                    ] 359.66K  1.70MB/s               /dev/null             0%[                    ] 951.66K  2.28MB/s               /dev/null             1%[                    ]   1.91M  3.15MB/s               /dev/null             2%[                    ]   3.55M  4.39MB/s               /dev/null             4%[                    ]   6.29M  6.22MB/s               /dev/null             8%[>                   ]  10.83M  8.94MB/s               /dev/null            13%[=>                  ]  18.10M  12.8MB/s               /dev/null            20%[===>                ]  26.04M  16.1MB/s               /dev/null            30%[=====>              ]  38.99M  21.5MB/s               /dev/null            39%[======>             ]  51.30M  25.5MB/s               /dev/null            49%[========>           ]  63.70M  28.8MB/s               /dev/null            58%[==========>         ]  75.80M  31.4MB/s               /dev/null            68%[============>       ]  88.35M  33.8MB/s               /dev/null            77%[==============>     ] 100.80M  35.8MB/s               /dev/null            87%[================>   ] 113.26M  37.6MB/s    eta 0s     /dev/null            97%[==================> ] 125.62M  41.1MB/s    eta 0s     /dev/null           100%[===================>] 129.44M  41.7MB/s    in 3.3s    

2018-04-05 00:40:53 (39.7 MB/s) - ‘/dev/null’ saved [135733206/135733206]

--2018-04-05 06:39:59--  https://mirror.hactar.xyz/iso/2018.03.01/archlinux-bootstrap-2018.03.01-x86_64.tar.gz
Resolving mirror.hactar.xyz (mirror.hactar.xyz)... 144.76.14.145, 2a01:4f8:190:9490::cafe
Connecting to mirror.hactar.xyz (mirror.hactar.xyz)|144.76.14.145|:443... connected.
HTTP request sent, awaiting response... 200 OK
Length: 135733206 (129M) [application/octet-stream]
Saving to: ‘/dev/null’

/dev/null             0%[                    ]       0  --.-KB/s               /dev/null             0%[                    ] 823.66K  4.01MB/s               /dev/null             4%[                    ]   6.23M  15.5MB/s               /dev/null            13%[=>                  ]  17.79M  29.6MB/s               /dev/null            23%[===>                ]  30.21M  37.7MB/s               /dev/null            32%[=====>              ]  41.98M  41.9MB/s               /dev/null            42%[=======>            ]  54.48M  45.3MB/s               /dev/null            51%[=========>          ]  67.24M  48.0MB/s               /dev/null            61%[===========>        ]  79.60M  49.7MB/s               /dev/null            71%[=============>      ]  92.33M  51.2MB/s               /dev/null            80%[===============>    ] 104.33M  52.1MB/s               /dev/null            90%[=================>  ] 116.69M  53.0MB/s               /dev/null           100%[===================>] 129.44M  54.2MB/s    in 2.4s    

2018-04-05 06:40:02 (54.2 MB/s) - ‘/dev/null’ saved [135733206/135733206]

--2018-04-05 12:32:40--  https://mirror.hactar.xyz/iso/2018.03.01/archlinux-bootstrap-2018.03.01-x86_64.tar.gz
Resolving mirror.hactar.xyz (mirror.hactar.xyz)... 144.76.14.145, 2a01:4f8:190:9490::cafe
Connecting to mirror.hactar.xyz (mirror.hactar.xyz)|144.76.14.145|:443... connected.
HTTP request sent, awaiting response... 200 OK
Length: 135733206 (129M) [application/octet-stream]
Saving to: ‘/dev/null’

/dev/null             0%[                    ]       0  --.-KB/s               /dev/null             0%[                    ] 935.66K  4.42MB/s               /dev/null             4%[                    ]   5.63M  13.8MB/s               /dev/null            10%[=>                  ]  13.15M  21.6MB/s               /dev/null            18%[==>                 ]  23.62M  29.3MB/s               /dev/null            27%[====>               ]  35.82M  35.6MB/s               /dev/null            37%[======>             ]  48.12M  39.9MB/s               /dev/null            46%[========>           ]  60.48M  43.0MB/s               /dev/null            56%[==========>         ]  73.08M  45.5MB/s               /dev/null            66%[============>       ]  85.62M  47.4MB/s               /dev/null            75%[==============>     ]  98.19M  48.9MB/s               /dev/null            85%[================>   ] 110.88M  50.2MB/s               /dev/null            95%[==================> ] 123.23M  51.2MB/s               /dev/null           100%[===================>] 129.44M  51.8MB/s    in 2.5s    

2018-04-05 12:32:43 (51.8 MB/s) - ‘/dev/null’ saved [135733206/135733206]

--2018-04-05 18:32:54--  https://mirror.hactar.xyz/iso/2018.03.01/archlinux-bootstrap-2018.03.01-x86_64.tar.gz
Resolving mirror.hactar.xyz (mirror.hactar.xyz)... 144.76.14.145, 2a01:4f8:190:9490::cafe
Connecting to mirror.hactar.xyz (mirror.hactar.xyz)|144.76.14.145|:443... connected.
HTTP request sent, awaiting response... 200 OK
Length: 135733206 (129M) [application/octet-stream]
Saving to: ‘/dev/null’

/dev/null             0%[                    ]       0  --.-KB/s               /dev/null             0%[                    ] 583.66K  2.82MB/s               /dev/null             2%[                    ]   3.32M  8.25MB/s               /dev/null             8%[>                   ]  11.29M  18.7MB/s               /dev/null            18%[==>                 ]  23.46M  29.2MB/s               /dev/null            27%[====>               ]  35.88M  35.8MB/s               /dev/null            37%[======>             ]  48.93M  40.7MB/s               /dev/null            47%[========>           ]  61.79M  44.0MB/s               /dev/null            57%[==========>         ]  74.46M  46.5MB/s               /dev/null            66%[============>       ]  86.71M  48.1MB/s               /dev/null            76%[==============>     ]  99.21M  49.5MB/s               /dev/null            86%[================>   ] 111.88M  50.8MB/s               /dev/null            96%[==================> ] 124.48M  51.8MB/s               /dev/null           100%[===================>] 129.44M  52.4MB/s    in 2.5s    

2018-04-05 18:32:56 (52.4 MB/s) - ‘/dev/null’ saved [135733206/135733206]

--2018-04-06 00:33:02--  https://mirror.hactar.xyz/iso/2018.03.01/archlinux-bootstrap-2018.03.01-x86_64.tar.gz
Resolving mirror.hactar.xyz (mirror.hactar.xyz)... 144.76.14.145, 2a01:4f8:190:9490::cafe
Connecting to mirror.hactar.xyz (mirror.hactar.xyz)|144.76.14.145|:443... connected.
HTTP request sent, awaiting response... 200 OK
Length: 135733206 (129M) [application/octet-stream]
Saving to: ‘/dev/null’

/dev/null             0%[                    ]       0  --.-KB/s               /dev/null             0%[                    ] 679.66K  3.29MB/s               /dev/null             3%[                    ]   4.33M  10.8MB/s               /dev/null             9%[>                   ]  11.68M  19.4MB/s               /dev/null            14%[=>                  ]  19.41M  24.1MB/s               /dev/null            20%[===>                ]  26.60M  26.4MB/s               /dev/null            26%[====>               ]  34.69M  28.8MB/s               /dev/null            33%[=====>              ]  42.83M  30.4MB/s               /dev/null            39%[======>             ]  50.69M  31.5MB/s               /dev/null            45%[========>           ]  59.13M  32.6MB/s               /dev/null            52%[=========>          ]  67.71M  33.7MB/s               /dev/null            58%[==========>         ]  75.80M  34.2MB/s               /dev/null            64%[===========>        ]  83.33M  34.5MB/s               /dev/null            69%[============>       ]  90.15M  34.5MB/s               /dev/null            74%[=============>      ]  96.94M  34.4MB/s               /dev/null            84%[===============>    ] 109.04M  36.2MB/s    eta 1s     /dev/null            93%[=================>  ] 121.30M  39.5MB/s    eta 1s     /dev/null           100%[===================>] 129.44M  40.6MB/s    in 3.3s    

2018-04-06 00:33:06 (38.8 MB/s) - ‘/dev/null’ saved [135733206/135733206]

--2018-04-06 06:32:43--  https://mirror.hactar.xyz/iso/2018.03.01/archlinux-bootstrap-2018.03.01-x86_64.tar.gz
Resolving mirror.hactar.xyz (mirror.hactar.xyz)... 144.76.14.145, 2a01:4f8:190:9490::cafe
Connecting to mirror.hactar.xyz (mirror.hactar.xyz)|144.76.14.145|:443... connected.
HTTP request sent, awaiting response... 200 OK
Length: 135733206 (129M) [application/octet-stream]
Saving to: ‘/dev/null’

/dev/null             0%[                    ]       0  --.-KB/s               /dev/null             0%[                    ] 711.66K  3.42MB/s               /dev/null             3%[                    ]   4.98M  12.2MB/s               /dev/null            12%[=>                  ]  15.77M  26.0MB/s               /dev/null            21%[===>                ]  27.60M  34.2MB/s               /dev/null            30%[=====>              ]  39.80M  39.5MB/s               /dev/null            40%[=======>            ]  52.43M  43.4MB/s               /dev/null            50%[=========>          ]  65.21M  46.3MB/s               /dev/null            59%[==========>         ]  77.52M  48.2MB/s               /dev/null            69%[============>       ]  90.01M  49.8MB/s               /dev/null            79%[==============>     ] 102.30M  51.0MB/s               /dev/null            88%[================>   ] 114.49M  51.9MB/s               /dev/null            98%[==================> ] 126.91M  52.7MB/s               /dev/null           100%[===================>] 129.44M  53.2MB/s    in 2.4s    

2018-04-06 06:32:45 (53.2 MB/s) - ‘/dev/null’ saved [135733206/135733206]

--2018-04-06 12:32:43--  https://mirror.hactar.xyz/iso/2018.03.01/archlinux-bootstrap-2018.03.01-x86_64.tar.gz
Resolving mirror.hactar.xyz (mirror.hactar.xyz)... 144.76.14.145, 2a01:4f8:190:9490::cafe
Connecting to mirror.hactar.xyz (mirror.hactar.xyz)|144.76.14.145|:443... connected.
HTTP request sent, awaiting response... 200 OK
Length: 135733206 (129M) [application/octet-stream]
Saving to: ‘/dev/null’

/dev/null             0%[                    ]       0  --.-KB/s               /dev/null             0%[                    ] 695.66K  3.33MB/s               /dev/null             2%[                    ]   3.63M  8.96MB/s               /dev/null             9%[>                   ]  12.85M  21.2MB/s               /dev/null            19%[==>                 ]  24.79M  30.8MB/s               /dev/null            28%[====>               ]  37.18M  37.0MB/s               /dev/null            38%[======>             ]  49.60M  41.1MB/s               /dev/null            47%[========>           ]  61.65M  43.8MB/s               /dev/null            57%[==========>         ]  74.55M  46.4MB/s               /dev/null            67%[============>       ]  87.07M  48.2MB/s               /dev/null            76%[==============>     ]  99.66M  49.7MB/s               /dev/null            86%[================>   ] 112.26M  50.9MB/s               /dev/null            96%[==================> ] 124.68M  51.8MB/s               /dev/null           100%[===================>] 129.44M  52.4MB/s    in 2.5s    

2018-04-06 12:32:46 (52.4 MB/s) - ‘/dev/null’ saved [135733206/135733206]

