Mon 19 Mar 12:22:02 GMT 2018
traceroute to meet-in-shanghai.net (210.51.49.136), 30 hops max, 60 byte packets
 1  139.222.0.1  1.189 ms  1.592 ms  1.936 ms
 2  10.0.0.1  0.329 ms  0.395 ms  0.383 ms
 3  193.62.92.124  1.010 ms  0.998 ms  0.980 ms
 4  193.62.92.71  1.405 ms  1.464 ms  1.228 ms
 5  146.97.41.209  7.908 ms  7.882 ms  7.868 ms
 6  146.97.35.233  8.634 ms  8.151 ms  8.128 ms
 7  146.97.33.6  7.124 ms  7.113 ms  7.096 ms
 8  146.97.33.61  7.061 ms  6.960 ms  7.019 ms
 9  146.97.35.194  7.348 ms  7.328 ms  7.263 ms
10  219.158.34.225  7.239 ms  7.195 ms  7.111 ms
11  219.158.107.101  200.354 ms  200.336 ms  200.324 ms
12  219.158.3.177  199.085 ms  199.075 ms  199.058 ms
13  * * *
14  219.158.7.230  217.429 ms 219.158.16.86  220.646 ms  220.783 ms
15  * * *
16  139.226.202.22  220.057 ms 112.64.246.222  220.122 ms  220.437 ms
17  112.65.255.150  221.785 ms  221.990 ms  222.554 ms
18  * * *
19  * * *
20  * * *
21  * * *
22  * * *
23  * * *
24  * * *
25  * * *
26  * * *
27  * * *
28  * * *
29  * * *
30  * * *

Mon 19 Mar 18:22:02 GMT 2018
traceroute to meet-in-shanghai.net (210.51.49.136), 30 hops max, 60 byte packets
 1  139.222.0.1  2.741 ms  3.135 ms  3.697 ms
 2  10.0.0.1  0.359 ms  0.353 ms  0.502 ms
 3  193.62.92.124  0.944 ms  0.890 ms  0.873 ms
 4  193.62.92.71  1.338 ms  1.234 ms  1.026 ms
 5  146.97.41.209  7.887 ms  7.993 ms  7.968 ms
 6  146.97.35.233  8.012 ms  7.999 ms  7.986 ms
 7  146.97.33.6  6.853 ms  7.076 ms  6.988 ms
 8  146.97.33.61  7.030 ms  6.989 ms  6.868 ms
 9  146.97.35.194  6.878 ms  6.971 ms  7.199 ms
10  219.158.34.225  7.190 ms  7.219 ms  6.974 ms
11  219.158.107.109  195.020 ms  195.006 ms  194.993 ms
12  219.158.3.177  197.588 ms  197.576 ms  197.564 ms
13  219.158.5.149  193.515 ms  193.497 ms  193.479 ms
14  219.158.16.86  216.844 ms  217.005 ms 219.158.8.242  219.286 ms
15  139.226.210.94  216.096 ms 139.226.225.190  214.895 ms  214.910 ms
16  139.226.202.22  217.186 ms 112.64.246.222  216.250 ms 139.226.202.22  215.429 ms
17  112.65.255.150  218.615 ms  218.478 ms  219.201 ms
18  * * *
19  * * *
20  * * *
21  * * *
22  * * *
23  * * *
24  * * *
25  * * *
26  * * *
27  * * *
28  * * *
29  * * *
30  * * *

Tue 20 Mar 00:22:02 GMT 2018
traceroute to meet-in-shanghai.net (210.51.49.136), 30 hops max, 60 byte packets
 1  139.222.0.1  1.031 ms  1.470 ms  1.862 ms
 2  10.0.0.1  0.316 ms  0.907 ms  0.891 ms
 3  193.62.92.124  0.995 ms  0.930 ms  0.908 ms
 4  193.62.92.71  1.163 ms  1.292 ms  1.374 ms
 5  146.97.41.209  8.446 ms  8.439 ms  8.415 ms
 6  146.97.35.233  18.186 ms  16.099 ms  15.778 ms
 7  146.97.33.6  10.270 ms  10.261 ms  10.919 ms
 8  146.97.33.61  7.782 ms  7.763 ms  7.759 ms
 9  146.97.35.194  7.202 ms  7.186 ms  7.699 ms
10  219.158.34.225  7.689 ms  7.795 ms  7.113 ms
11  219.158.107.109  199.968 ms  198.074 ms  198.048 ms
12  219.158.3.177  202.506 ms  202.487 ms  202.477 ms
13  219.158.5.149  198.002 ms  197.643 ms  199.116 ms
14  219.158.16.86  222.721 ms 219.158.16.90  222.709 ms 219.158.16.86  222.807 ms
15  139.226.225.186  224.827 ms * 139.226.210.94  221.768 ms
16  112.64.246.222  222.726 ms 139.226.202.22  221.820 ms  221.131 ms
17  112.65.255.150  225.304 ms  224.983 ms  223.855 ms
18  * * *
19  * * *
20  * * *
21  * * *
22  * * *
23  * * *
24  * * *
25  * * *
26  * * *
27  * * *
28  * * *
29  * * *
30  * * *

Tue 20 Mar 06:22:01 GMT 2018
traceroute to meet-in-shanghai.net (210.51.49.136), 30 hops max, 60 byte packets
 1  139.222.0.1  1.093 ms  1.624 ms  1.993 ms
 2  10.0.0.1  0.411 ms  0.503 ms  0.490 ms
 3  193.62.92.124  1.028 ms  1.012 ms  0.993 ms
 4  193.62.92.71  1.553 ms  1.426 ms  1.458 ms
 5  146.97.41.209  7.858 ms  7.950 ms  7.966 ms
 6  146.97.35.233  8.104 ms  8.005 ms  7.993 ms
 7  146.97.33.6  6.884 ms  7.060 ms  7.521 ms
 8  146.97.33.61  7.032 ms  7.389 ms  7.272 ms
 9  146.97.35.194  7.264 ms  7.245 ms  7.236 ms
10  219.158.34.225  7.614 ms  7.190 ms  7.181 ms
11  219.158.107.109  197.511 ms  197.213 ms  197.487 ms
12  219.158.3.177  197.966 ms  197.955 ms  197.925 ms
13  * 219.158.5.149  195.923 ms  196.123 ms
14  219.158.8.242  220.669 ms 219.158.7.230  214.952 ms *
15  139.226.210.94  217.837 ms *  217.632 ms
16  112.64.246.222  218.671 ms 139.226.202.22  134.450 ms  134.952 ms
17  112.65.255.150  138.312 ms  137.581 ms  137.441 ms
18  * * *
19  * * *
20  * * *
21  * * *
22  * * *
23  * * *
24  * * *
25  * * *
26  * * *
27  * * *
28  * * *
29  * * *
30  * * *

Tue 20 Mar 12:22:03 GMT 2018
traceroute to meet-in-shanghai.net (210.51.49.136), 30 hops max, 60 byte packets
 1  139.222.0.1  1.005 ms  1.395 ms  1.819 ms
 2  10.0.0.1  0.304 ms  0.867 ms  0.838 ms
 3  193.62.92.124  0.930 ms  0.912 ms  0.979 ms
 4  193.62.92.71  1.042 ms  1.229 ms  1.341 ms
 5  146.97.41.209  7.854 ms  8.819 ms  8.793 ms
 6  146.97.35.233  8.781 ms  8.551 ms  8.535 ms
 7  146.97.33.1  8.444 ms  8.428 ms  8.403 ms
 8  146.97.35.198  6.958 ms  6.941 ms  6.928 ms
 9  62.115.148.158  8.354 ms  8.334 ms  8.309 ms
10  62.115.121.60  148.477 ms 62.115.124.202  152.614 ms  157.537 ms
11  62.115.135.94  77.319 ms  77.308 ms  77.390 ms
12  80.91.252.220  154.464 ms 213.155.130.129  152.870 ms 80.91.252.220  153.264 ms
13  213.248.73.190  290.006 ms 213.248.92.54  322.243 ms  326.068 ms
14  219.158.25.53  325.642 ms  325.579 ms  325.611 ms
15  219.158.103.37  303.961 ms  297.057 ms  297.024 ms
16  219.158.8.121  296.009 ms  295.666 ms  297.823 ms
17  219.158.111.253  302.106 ms * *
18  * * *
19  112.64.246.222  317.628 ms  313.841 ms  316.519 ms
20  112.65.255.150  317.744 ms  316.729 ms  316.641 ms
21  * * *
22  * * *
23  * * *
24  * * *
25  * * *
26  * * *
27  * * *
28  * * *
29  * * *
30  * * *

Tue 20 Mar 18:22:02 GMT 2018
traceroute to meet-in-shanghai.net (210.51.49.136), 30 hops max, 60 byte packets
 1  139.222.0.1  0.869 ms  1.291 ms  1.688 ms
 2  10.0.0.1  0.291 ms  0.279 ms  0.260 ms
 3  193.62.92.124  1.003 ms  0.975 ms  0.952 ms
 4  193.62.92.71  1.355 ms  1.191 ms  1.748 ms
 5  146.97.41.209  7.807 ms  7.785 ms  7.781 ms
 6  146.97.35.233  8.232 ms  8.188 ms  8.228 ms
 7  146.97.33.1  7.122 ms  7.051 ms  7.082 ms
 8  146.97.35.198  6.788 ms  6.886 ms  6.929 ms
 9  62.115.148.158  7.052 ms  7.039 ms  6.965 ms
10  62.115.134.134  152.410 ms  152.550 ms  152.695 ms
11  80.91.246.68  86.003 ms 62.115.122.61  79.054 ms 62.115.136.185  150.620 ms
12  62.115.119.229  152.371 ms 80.91.252.220  149.359 ms 80.91.248.188  149.680 ms
13  213.248.71.90  285.112 ms 213.248.73.190  286.004 ms  285.992 ms
14  219.158.25.53  321.925 ms  321.879 ms  325.536 ms
15  219.158.103.37  294.101 ms  295.709 ms  296.892 ms
16  219.158.8.121  295.193 ms  295.228 ms  295.204 ms
17  219.158.7.41  304.161 ms  303.593 ms 219.158.111.253  299.758 ms
18  139.226.210.98  313.028 ms 139.226.210.94  304.441 ms 139.226.210.98  317.004 ms
19  139.226.202.22  317.515 ms  315.532 ms  314.211 ms
20  112.65.255.150  315.490 ms  317.269 ms  317.859 ms
21  * * *
22  * * *
23  * * *
24  * * *
25  * * *
26  * * *
27  * * *
28  * * *
29  * * *
30  * * *

Wed 21 Mar 00:22:02 GMT 2018
traceroute to meet-in-shanghai.net (210.51.49.136), 30 hops max, 60 byte packets
 1  139.222.0.1  1.136 ms  1.540 ms  1.978 ms
 2  10.0.0.1  0.331 ms  0.372 ms  0.660 ms
 3  193.62.92.124  0.938 ms  0.973 ms  0.910 ms
 4  193.62.92.71  1.063 ms  1.182 ms  1.273 ms
 5  146.97.41.209  7.667 ms  7.713 ms  7.700 ms
 6  146.97.35.233  7.850 ms  8.782 ms  8.762 ms
 7  146.97.33.1  7.228 ms  7.226 ms  7.214 ms
 8  146.97.35.198  7.194 ms  7.195 ms  7.179 ms
 9  62.115.148.158  13.306 ms  8.653 ms  13.292 ms
10  62.115.134.138  146.205 ms 62.115.134.134  165.752 ms  165.741 ms
11  62.115.136.185  151.734 ms  151.082 ms 80.91.246.68  86.261 ms
12  213.155.130.129  150.390 ms  151.549 ms 80.91.248.188  151.169 ms
13  213.248.71.90  286.092 ms 213.248.92.54  319.681 ms 213.248.73.190  287.347 ms
14  219.158.25.53  319.718 ms  323.348 ms  322.135 ms
15  219.158.103.37  301.191 ms  298.403 ms  297.462 ms
16  219.158.8.121  297.312 ms  297.461 ms  295.530 ms
17  219.158.7.57  303.883 ms 219.158.7.41  306.067 ms 219.158.109.9  330.707 ms
18  * * *
19  112.64.246.222  314.390 ms  317.566 ms 139.226.202.22  317.043 ms
20  112.65.255.150  314.645 ms  315.728 ms  315.079 ms
21  * * *
22  * * *
23  * * *
24  * * *
25  * * *
26  * * *
27  * * *
28  * * *
29  * * *
30  * * *

Wed 21 Mar 06:22:02 GMT 2018
traceroute to meet-in-shanghai.net (210.51.49.136), 30 hops max, 60 byte packets
 1  139.222.0.1  3.439 ms  3.842 ms  4.381 ms
 2  10.0.0.1  0.395 ms  0.388 ms  0.530 ms
 3  193.62.92.124  0.958 ms  0.946 ms  0.936 ms
 4  193.62.92.71  1.073 ms  1.284 ms  1.249 ms
 5  146.97.41.209  7.683 ms  7.622 ms  8.135 ms
 6  146.97.35.233  7.642 ms  7.831 ms  7.816 ms
 7  146.97.33.1  6.897 ms  6.843 ms  6.832 ms
 8  146.97.35.198  6.816 ms  6.805 ms  6.808 ms
 9  62.115.148.158  6.940 ms  7.121 ms  7.107 ms
10  62.115.134.138  150.744 ms  149.075 ms 62.115.134.134  153.738 ms
11  62.115.136.185  150.358 ms 80.91.246.68  85.619 ms 62.115.136.185  151.427 ms
12  62.115.119.229  152.925 ms 80.91.252.220  149.538 ms 213.155.130.129  151.486 ms
13  213.248.71.90  283.344 ms 213.248.73.190  290.473 ms  287.096 ms
14  219.158.25.53  323.062 ms  323.047 ms  326.100 ms
15  219.158.103.37  298.752 ms  302.200 ms  303.091 ms
16  219.158.8.121  296.115 ms  298.120 ms  297.607 ms
17  219.158.7.57  304.316 ms  302.308 ms 219.158.109.9  328.654 ms
18  * 139.226.210.94  307.300 ms *
19  112.64.246.222  314.639 ms  313.302 ms  314.536 ms
20  112.65.255.150  316.876 ms  315.296 ms  317.902 ms
21  * * *
22  * * *
23  * * *
24  * * *
25  * * *
26  * * *
27  * * *
28  * * *
29  * * *
30  * * *

Wed 21 Mar 12:22:02 GMT 2018
traceroute to meet-in-shanghai.net (210.51.49.136), 30 hops max, 60 byte packets
 1  139.222.0.1  0.952 ms  1.258 ms  1.641 ms
 2  10.0.0.1  0.256 ms  0.235 ms  0.829 ms
 3  193.62.92.124  0.983 ms  0.969 ms  0.937 ms
 4  193.62.92.71  1.144 ms  1.246 ms  1.313 ms
 5  146.97.41.209  7.806 ms  7.722 ms  7.883 ms
 6  146.97.35.233  8.007 ms  8.131 ms  8.109 ms
 7  146.97.33.6  7.474 ms  7.460 ms  7.619 ms
 8  146.97.33.61  7.206 ms  7.283 ms  7.174 ms
 9  146.97.35.194  7.379 ms  7.352 ms  7.322 ms
10  219.158.34.225  7.501 ms  7.012 ms  7.126 ms
11  219.158.107.101  198.012 ms  198.001 ms  197.983 ms
12  219.158.3.177  199.121 ms  199.108 ms  199.098 ms
13  219.158.5.149  188.930 ms  189.064 ms  189.267 ms
14  219.158.16.86  218.028 ms 219.158.16.90  217.819 ms *
15  * 139.226.210.94  218.197 ms  218.146 ms
16  112.64.246.222  216.773 ms 139.226.202.22  212.616 ms 112.64.246.222  217.343 ms
17  112.65.255.150  219.781 ms  219.594 ms  218.520 ms
18  * * *
19  * * *
20  * * *
21  * * *
22  * * *
23  * * *
24  * * *
25  * * *
26  * * *
27  * * *
28  * * *
29  * * *
30  * * *

Wed 21 Mar 18:22:02 GMT 2018
traceroute to meet-in-shanghai.net (210.51.49.136), 30 hops max, 60 byte packets
 1  139.222.0.1  0.991 ms  1.389 ms  1.771 ms
 2  10.0.0.1  0.291 ms  0.417 ms  0.392 ms
 3  193.62.92.124  0.968 ms  1.022 ms  0.864 ms
 4  193.62.92.71  1.115 ms  1.324 ms  1.164 ms
 5  146.97.41.209  7.901 ms  7.818 ms  7.852 ms
 6  146.97.35.233  14.041 ms  14.000 ms  13.982 ms
 7  146.97.33.6  6.900 ms  6.968 ms  6.945 ms
 8  146.97.33.61  7.064 ms  7.051 ms  7.082 ms
 9  146.97.35.194  7.151 ms  7.146 ms  7.038 ms
10  219.158.34.225  7.120 ms  6.913 ms  7.103 ms
11  219.158.107.101  197.837 ms  197.741 ms  197.761 ms
12  219.158.3.177  199.340 ms  199.297 ms  199.347 ms
13  219.158.5.149  189.405 ms  189.476 ms  189.465 ms
14  219.158.7.234  216.587 ms 219.158.16.86  217.708 ms 219.158.7.234  216.526 ms
15  * 139.226.210.98  215.972 ms *
16  139.226.202.22  213.259 ms 112.64.246.222  217.251 ms  216.962 ms
17  112.65.255.150  220.223 ms  218.461 ms  219.160 ms
18  * * *
19  * * *
20  * * *
21  * * *
22  * * *
23  * * *
24  * * *
25  * * *
26  * * *
27  * * *
28  * * *
29  * * *
30  * * *

Thu 22 Mar 00:22:02 GMT 2018
traceroute to meet-in-shanghai.net (210.51.49.136), 30 hops max, 60 byte packets
 1  139.222.0.1  1.337 ms  1.756 ms  2.155 ms
 2  10.0.0.1  0.384 ms  0.716 ms  0.704 ms
 3  193.62.92.124  1.136 ms  1.067 ms  1.115 ms
 4  193.62.92.71  1.504 ms  1.326 ms  1.281 ms
 5  146.97.41.209  7.792 ms  7.716 ms  7.699 ms
 6  146.97.35.233  7.868 ms  8.058 ms  8.037 ms
 7  146.97.33.6  7.724 ms  7.209 ms  7.705 ms
 8  146.97.33.61  7.688 ms  7.670 ms  7.670 ms
 9  146.97.35.194  7.651 ms  7.129 ms  7.621 ms
10  219.158.34.225  7.620 ms  7.056 ms  7.059 ms
11  219.158.107.101  199.216 ms  197.163 ms  198.403 ms
12  219.158.3.177  200.195 ms  200.555 ms  200.137 ms
13  219.158.5.149  193.273 ms  192.533 ms  193.245 ms
14  219.158.8.242  219.223 ms 219.158.16.90  216.738 ms 219.158.8.242  218.987 ms
15  139.226.225.190  215.014 ms  214.707 ms  214.803 ms
16  112.64.246.222  217.719 ms  216.200 ms 139.226.202.22  216.564 ms
17  112.65.255.150  217.899 ms  217.871 ms  217.967 ms
18  * * *
19  * * *
20  * * *
21  * * *
22  * * *
23  * * *
24  * * *
25  * * *
26  * * *
27  * * *
28  * * *
29  * * *
30  * * *

Thu 22 Mar 06:22:03 GMT 2018
traceroute to meet-in-shanghai.net (210.51.49.136), 30 hops max, 60 byte packets
 1  139.222.0.1  0.886 ms  1.309 ms  1.698 ms
 2  10.0.0.1  0.276 ms  0.322 ms  0.307 ms
 3  193.62.92.124  0.941 ms  0.891 ms  0.962 ms
 4  193.62.92.71  1.082 ms  1.234 ms  1.292 ms
 5  146.97.41.209  11.939 ms  11.934 ms  11.574 ms
 6  146.97.35.233  7.787 ms  7.920 ms  7.904 ms
 7  146.97.33.6  7.436 ms  7.185 ms  7.035 ms
 8  146.97.33.61  7.027 ms  6.914 ms  6.961 ms
 9  146.97.35.194  6.985 ms  6.964 ms  6.956 ms
10  219.158.34.225  7.350 ms  7.807 ms  6.906 ms
11  219.158.107.101  198.297 ms  197.927 ms  197.910 ms
12  219.158.3.177  194.785 ms  194.770 ms  194.657 ms
13  219.158.5.149  193.364 ms  193.581 ms  193.336 ms
14  219.158.16.90  217.644 ms 219.158.8.242  219.750 ms 219.158.16.90  219.278 ms
15  139.226.210.98  214.279 ms 139.226.225.186  222.306 ms 139.226.210.98  214.016 ms
16  139.226.202.22  216.125 ms  215.845 ms  215.670 ms
17  112.65.255.150  218.881 ms  219.730 ms  220.167 ms
18  * * *
19  * * *
20  * * *
21  * * *
22  * * *
23  * * *
24  * * *
25  * * *
26  * * *
27  * * *
28  * * *
29  * * *
30  * * *

Thu 22 Mar 12:22:02 GMT 2018
traceroute to meet-in-shanghai.net (210.51.49.136), 30 hops max, 60 byte packets
 1  139.222.0.1  0.967 ms  1.345 ms  1.743 ms
 2  10.0.0.1  0.311 ms  0.790 ms  0.776 ms
 3  193.62.92.124  0.917 ms  0.942 ms  0.965 ms
 4  193.62.92.71  1.150 ms  1.223 ms  1.334 ms
 5  146.97.41.209  8.117 ms  8.099 ms  7.741 ms
 6  146.97.35.233  8.062 ms  7.922 ms  7.784 ms
 7  146.97.33.6  7.311 ms  7.141 ms  7.283 ms
 8  146.97.33.61  7.031 ms  7.018 ms  7.003 ms
 9  146.97.35.194  6.944 ms  7.042 ms  7.024 ms
10  219.158.34.225  6.996 ms  6.861 ms  7.490 ms
11  219.158.98.13  194.557 ms  194.914 ms  194.900 ms
12  219.158.3.177  200.951 ms  200.562 ms  200.924 ms
13  219.158.5.149  188.804 ms  188.982 ms  189.175 ms
14  219.158.7.234  216.208 ms 219.158.16.86  217.108 ms 219.158.16.90  217.647 ms
15  139.226.210.98  211.978 ms  211.359 ms  210.478 ms
16  139.226.202.22  211.577 ms 112.64.246.222  216.506 ms 139.226.202.22  213.008 ms
17  112.65.255.150  218.227 ms  219.480 ms  219.351 ms
18  * * *
19  * * *
20  * * *
21  * * *
22  * * *
23  * * *
24  * * *
25  * * *
26  * * *
27  * * *
28  * * *
29  * * *
30  * * *

Thu 22 Mar 18:22:02 GMT 2018
traceroute to meet-in-shanghai.net (210.51.49.136), 30 hops max, 60 byte packets
 1  139.222.0.1  1.044 ms  1.428 ms  1.848 ms
 2  10.0.0.1  0.377 ms  0.398 ms  0.409 ms
 3  193.62.92.124  1.092 ms  1.038 ms  1.026 ms
 4  193.62.92.71  1.250 ms  1.660 ms  1.708 ms
 5  146.97.41.209  8.021 ms  8.003 ms  7.987 ms
 6  146.97.35.233  8.137 ms  8.141 ms  8.128 ms
 7  146.97.33.6  7.352 ms  7.170 ms  7.179 ms
 8  146.97.33.61  7.292 ms  7.273 ms  7.262 ms
 9  146.97.35.194  7.246 ms  7.171 ms  7.150 ms
10  219.158.34.225  7.148 ms  7.101 ms  7.104 ms
11  219.158.98.13  196.925 ms  196.881 ms  196.897 ms
12  219.158.3.177  200.003 ms  200.034 ms  199.019 ms
13  219.158.5.149  190.035 ms  190.081 ms  189.701 ms
14  219.158.16.90  218.349 ms 219.158.7.234  217.972 ms 219.158.8.242  220.532 ms
15  * 139.226.197.138  219.756 ms *
16  112.64.246.222  218.415 ms  218.891 ms  218.495 ms
17  112.65.255.150  220.644 ms  220.954 ms  220.447 ms
18  * * *
19  * * *
20  * * *
21  * * *
22  * * *
23  * * *
24  * * *
25  * * *
26  * * *
27  * * *
28  * * *
29  * * *
30  * * *

Fri 23 Mar 00:22:02 GMT 2018
traceroute to meet-in-shanghai.net (210.51.49.136), 30 hops max, 60 byte packets
 1  139.222.0.1  1.029 ms  1.428 ms  1.843 ms
 2  10.0.0.1  0.351 ms  0.396 ms  0.423 ms
 3  193.62.92.124  1.167 ms  1.019 ms  1.007 ms
 4  193.62.92.71  1.483 ms  1.329 ms  1.167 ms
 5  146.97.41.209  7.867 ms  7.771 ms  7.843 ms
 6  146.97.35.233  7.865 ms  8.034 ms  8.480 ms
 7  146.97.33.6  7.182 ms  6.995 ms  6.983 ms
 8  146.97.33.61  7.134 ms  7.188 ms  7.169 ms
 9  146.97.35.194  7.010 ms  6.999 ms  6.988 ms
10  219.158.34.225  7.028 ms  7.396 ms  7.381 ms
11  219.158.98.13  194.932 ms  194.550 ms  194.539 ms
12  219.158.3.177  199.079 ms  199.469 ms  199.457 ms
13  219.158.5.149  188.962 ms  189.375 ms  189.063 ms
14  219.158.7.230  208.140 ms 219.158.8.242  218.421 ms 219.158.16.90  216.215 ms
15  139.226.210.94  216.276 ms  216.543 ms *
16  139.226.202.22  209.724 ms 112.64.246.222  216.135 ms  216.118 ms
17  112.65.255.150  217.113 ms  217.210 ms  218.303 ms
18  * * *
19  * * *
20  * * *
21  * * *
22  * * *
23  * * *
24  * * *
25  * * *
26  * * *
27  * * *
28  * * *
29  * * *
30  * * *

Fri 23 Mar 06:22:01 GMT 2018
traceroute to meet-in-shanghai.net (210.51.49.136), 30 hops max, 60 byte packets
 1  139.222.0.1  1.138 ms  1.381 ms  1.880 ms
 2  10.0.0.1  0.330 ms  0.395 ms  0.507 ms
 3  193.62.92.124  0.979 ms  0.960 ms  0.976 ms
 4  193.62.92.71  1.174 ms  1.244 ms  1.353 ms
 5  146.97.41.209  7.914 ms  8.283 ms  8.253 ms
 6  146.97.35.233  7.987 ms  8.146 ms  8.134 ms
 7  146.97.33.6  7.286 ms  7.263 ms  7.252 ms
 8  146.97.33.61  7.262 ms  7.246 ms  7.224 ms
 9  146.97.35.194  7.200 ms  7.190 ms  7.102 ms
10  219.158.34.225  7.173 ms  6.987 ms  7.132 ms
11  219.158.98.13  195.545 ms  195.529 ms  195.512 ms
12  219.158.3.177  194.971 ms  194.989 ms  194.941 ms
13  219.158.5.149  190.020 ms * *
14  219.158.8.242  221.034 ms 219.158.7.234  217.821 ms 219.158.16.86  218.898 ms
15  * 139.226.210.98  211.297 ms  211.992 ms
16  139.226.202.22  214.358 ms 112.64.246.222  219.207 ms 139.226.202.22  213.056 ms
17  112.65.255.150  220.585 ms  220.735 ms  220.919 ms
18  * * *
19  * * *
20  * * *
21  * * *
22  * * *
23  * * *
24  * * *
25  * * *
26  * * *
27  * * *
28  * * *
29  * * *
30  * * *

Fri 23 Mar 12:22:02 GMT 2018
traceroute to meet-in-shanghai.net (210.51.49.136), 30 hops max, 60 byte packets
 1  139.222.0.1  0.978 ms  1.221 ms  1.644 ms
 2  10.0.0.1  0.260 ms  0.296 ms  0.322 ms
 3  193.62.92.124  1.016 ms  1.003 ms  0.981 ms
 4  193.62.92.71  1.202 ms  1.321 ms  1.437 ms
 5  146.97.41.209  7.748 ms  8.517 ms  8.497 ms
 6  146.97.35.233  8.196 ms  8.029 ms  7.979 ms
 7  146.97.33.6  8.696 ms  8.755 ms  8.769 ms
 8  146.97.33.61  13.227 ms  13.117 ms  13.062 ms
 9  146.97.35.194  6.990 ms  6.972 ms  6.961 ms
10  219.158.34.225  7.694 ms  7.092 ms  7.037 ms
11  219.158.107.109  193.581 ms  191.867 ms  191.853 ms
12  219.158.3.177  204.608 ms  204.590 ms  204.575 ms
13  219.158.5.149  192.178 ms  192.432 ms  192.252 ms
14  219.158.8.242  226.712 ms * 219.158.7.234  222.552 ms
15  139.226.225.186  225.906 ms 139.226.225.190  222.817 ms 139.226.225.186  224.839 ms
16  139.226.202.22  216.266 ms  215.600 ms  214.373 ms
17  112.65.255.150  225.941 ms  225.601 ms  225.745 ms
18  * * *
19  * * *
20  * * *
21  * * *
22  * * *
23  * * *
24  * * *
25  * * *
26  * * *
27  * * *
28  * * *
29  * * *
30  * * *

Fri 23 Mar 18:22:02 GMT 2018
traceroute to meet-in-shanghai.net (210.51.49.136), 30 hops max, 60 byte packets
 1  139.222.0.1  1.296 ms  1.666 ms  2.221 ms
 2  10.0.0.1  0.315 ms  0.329 ms  0.352 ms
 3  193.62.92.124  1.092 ms  1.075 ms  1.053 ms
 4  193.62.92.71  1.187 ms  1.322 ms  1.387 ms
 5  146.97.41.209  7.979 ms  8.015 ms  7.999 ms
 6  146.97.35.233  7.759 ms  7.805 ms  7.788 ms
 7  146.97.33.6  6.945 ms  6.934 ms  6.955 ms
 8  146.97.33.61  6.998 ms  6.980 ms  6.962 ms
 9  146.97.35.194  6.887 ms  7.004 ms  7.278 ms
10  219.158.34.225  7.273 ms  7.083 ms  7.034 ms
11  219.158.107.109  189.196 ms  189.177 ms  188.860 ms
12  219.158.3.177  197.116 ms  197.134 ms  197.116 ms
13  219.158.5.149  190.583 ms  190.931 ms  190.759 ms
14  219.158.16.90  215.128 ms 219.158.7.230  207.613 ms 219.158.8.242  217.245 ms
15  139.226.210.94  215.211 ms 139.226.210.98  208.376 ms *
16  112.64.246.222  214.648 ms 139.226.202.22  209.304 ms 112.64.246.222  214.559 ms
17  112.65.255.150  215.987 ms  217.191 ms  216.092 ms
18  * * *
19  * * *
20  * * *
21  * * *
22  * * *
23  * * *
24  * * *
25  * * *
26  * * *
27  * * *
28  * * *
29  * * *
30  * * *

Sat 24 Mar 00:22:02 GMT 2018
traceroute to meet-in-shanghai.net (210.51.49.136), 30 hops max, 60 byte packets
 1  139.222.0.1  1.124 ms  1.470 ms  1.872 ms
 2  10.0.0.1  0.426 ms  0.454 ms  0.473 ms
 3  193.62.92.124  1.042 ms  1.083 ms  1.067 ms
 4  193.62.92.71  1.193 ms  3.349 ms  1.337 ms
 5  146.97.41.209  9.034 ms  9.010 ms  8.898 ms
 6  146.97.35.233  8.515 ms  8.323 ms  8.313 ms
 7  146.97.33.6  7.039 ms  7.020 ms  6.980 ms
 8  146.97.33.61  8.182 ms  8.163 ms  8.152 ms
 9  146.97.35.194  8.128 ms  8.119 ms  6.994 ms
10  219.158.34.225  6.981 ms  7.924 ms  6.999 ms
11  219.158.107.101  201.163 ms  201.156 ms  201.135 ms
12  219.158.3.177  197.290 ms  197.278 ms  196.699 ms
13  219.158.5.149  195.647 ms  196.715 ms  196.695 ms
14  219.158.16.90  220.428 ms  220.628 ms  220.776 ms
15  * 139.226.225.190  218.416 ms 139.226.210.98  217.152 ms
16  112.64.246.222  219.847 ms  220.045 ms  219.311 ms
17  112.65.255.150  222.275 ms  222.265 ms  222.263 ms
18  * * *
19  * * *
20  * * *
21  * * *
22  * * *
23  * * *
24  * * *
25  * * *
26  * * *
27  * * *
28  * * *
29  * * *
30  * * *

Sat 24 Mar 06:22:02 GMT 2018
traceroute to meet-in-shanghai.net (210.51.49.136), 30 hops max, 60 byte packets
 1  139.222.0.1  0.941 ms  1.337 ms  1.779 ms
 2  10.0.0.1  0.304 ms  0.317 ms  0.391 ms
 3  193.62.92.124  0.955 ms  0.900 ms  0.934 ms
 4  193.62.92.71  1.035 ms  1.340 ms  1.231 ms
 5  146.97.41.209  7.780 ms  7.755 ms  7.786 ms
 6  146.97.35.233  8.121 ms  8.076 ms  8.064 ms
 7  146.97.33.6  6.914 ms  7.000 ms  7.118 ms
 8  146.97.33.61  7.068 ms  6.931 ms  6.969 ms
 9  146.97.35.194  6.875 ms  6.864 ms  6.913 ms
10  219.158.34.225  6.898 ms  6.870 ms  6.953 ms
11  219.158.107.101  196.838 ms  197.063 ms  197.054 ms
12  219.158.3.177  195.889 ms  195.874 ms  195.630 ms
13  219.158.5.149  193.295 ms  192.893 ms  192.995 ms
14  * * 219.158.8.242  219.521 ms
15  139.226.225.190  215.514 ms * *
16  139.226.202.22  215.929 ms 112.64.246.222  218.729 ms 139.226.202.22  218.713 ms
17  112.65.255.150  221.054 ms  221.276 ms  219.899 ms
18  * * *
19  * * *
20  * * *
21  * * *
22  * * *
23  * * *
24  * * *
25  * * *
26  * * *
27  * * *
28  * * *
29  * * *
30  * * *

Sat 24 Mar 12:22:02 GMT 2018
traceroute to meet-in-shanghai.net (210.51.49.136), 30 hops max, 60 byte packets
 1  139.222.0.1  1.334 ms  1.440 ms  1.836 ms
 2  10.0.0.1  0.334 ms  0.320 ms  1.198 ms
 3  193.62.92.124  1.189 ms  1.163 ms  1.143 ms
 4  193.62.92.71  1.195 ms  1.284 ms  1.380 ms
 5  146.97.41.209  7.777 ms  8.387 ms  8.361 ms
 6  146.97.35.233  8.343 ms  8.045 ms  8.031 ms
 7  146.97.33.6  7.257 ms  7.349 ms  7.338 ms
 8  146.97.33.61  7.216 ms  7.163 ms  7.148 ms
 9  146.97.35.194  7.138 ms  7.056 ms  7.104 ms
10  219.158.34.225  7.245 ms  6.998 ms  6.899 ms
11  219.158.107.101  198.641 ms  198.673 ms  200.139 ms
12  219.158.3.177  199.616 ms  199.595 ms  199.575 ms
13  219.158.5.149  193.162 ms  194.441 ms  193.540 ms
14  219.158.16.90  218.673 ms * 219.158.16.86  218.652 ms
15  139.226.225.186  219.159 ms 139.226.210.94  218.622 ms 139.226.210.98  215.504 ms
16  112.64.246.222  217.276 ms 139.226.202.22  216.934 ms  215.956 ms
17  112.65.255.150  216.870 ms  216.787 ms  217.614 ms
18  * * *
19  * * *
20  * * *
21  * * *
22  * * *
23  * * *
24  * * *
25  * * *
26  * * *
27  * * *
28  * * *
29  * * *
30  * * *

Sat 24 Mar 18:22:01 GMT 2018
traceroute to meet-in-shanghai.net (210.51.49.136), 30 hops max, 60 byte packets
 1  139.222.0.1  1.239 ms  1.449 ms  1.847 ms
 2  10.0.0.1  0.289 ms  0.315 ms  0.322 ms
 3  193.62.92.124  1.066 ms  1.042 ms  1.026 ms
 4  193.62.92.71  1.386 ms  1.234 ms  1.462 ms
 5  146.97.41.209  7.965 ms  7.952 ms  8.057 ms
 6  146.97.35.233  8.033 ms  8.036 ms  8.020 ms
 7  146.97.33.6  7.089 ms  8.244 ms  7.380 ms
 8  146.97.33.61  7.347 ms  7.342 ms  7.279 ms
 9  146.97.35.194  7.198 ms  7.065 ms  7.089 ms
10  219.158.34.225  7.203 ms  6.991 ms  7.184 ms
11  219.158.107.101  201.708 ms  201.599 ms  201.589 ms
12  219.158.3.177  200.682 ms  200.660 ms  200.698 ms
13  * * *
14  219.158.7.230  216.834 ms 219.158.16.86  236.097 ms 219.158.7.230  216.624 ms
15  139.226.225.186  222.542 ms 139.226.210.98  216.666 ms 139.226.201.86  220.736 ms
16  139.226.202.22  219.903 ms  219.687 ms  218.861 ms
17  112.65.255.150  221.354 ms  221.005 ms  222.308 ms
18  * * *
19  * * *
20  * * *
21  * * *
22  * * *
23  * * *
24  * * *
25  * * *
26  * * *
27  * * *
28  * * *
29  * * *
30  * * *

Sun 25 Mar 00:22:02 GMT 2018
traceroute to meet-in-shanghai.net (210.51.49.136), 30 hops max, 60 byte packets
 1  139.222.0.1  0.982 ms  1.423 ms  1.789 ms
 2  10.0.0.1  0.507 ms  0.854 ms  0.847 ms
 3  193.62.92.124  1.142 ms  1.127 ms  1.007 ms
 4  193.62.92.71  1.430 ms  1.178 ms  1.397 ms
 5  146.97.41.209  8.630 ms  8.275 ms  8.597 ms
 6  146.97.35.233  9.302 ms  9.185 ms  9.221 ms
 7  146.97.33.6  7.155 ms  7.188 ms  7.179 ms
 8  146.97.33.61  7.959 ms  8.014 ms  8.003 ms
 9  146.97.35.194  7.114 ms  7.101 ms  7.095 ms
10  219.158.34.225  7.190 ms  7.301 ms  7.228 ms
11  219.158.107.101  198.253 ms  198.227 ms  198.118 ms
12  219.158.3.177  194.936 ms  194.923 ms  194.902 ms
13  219.158.5.149  194.902 ms  194.864 ms  194.871 ms
14  219.158.8.242  220.314 ms 219.158.7.230  214.741 ms 219.158.16.90  218.129 ms
15  139.226.210.98  214.512 ms  215.441 ms 139.226.210.94  218.020 ms
16  139.226.202.22  216.804 ms 112.64.246.222  218.714 ms  217.468 ms
17  112.65.255.150  219.208 ms  220.338 ms  218.983 ms
18  * * *
19  * * *
20  * * *
21  * * *
22  * * *
23  * * *
24  * * *
25  * * *
26  * * *
27  * * *
28  * * *
29  * * *
30  * * *

Sun 25 Mar 06:22:02 BST 2018
traceroute to meet-in-shanghai.net (210.51.49.136), 30 hops max, 60 byte packets
 1  139.222.0.1  1.171 ms  1.566 ms  1.975 ms
 2  10.0.0.1  0.385 ms  0.370 ms  0.395 ms
 3  193.62.92.124  1.058 ms  1.041 ms  1.047 ms
 4  193.62.92.71  1.290 ms  1.278 ms  1.418 ms
 5  146.97.41.209  7.828 ms  7.775 ms  7.672 ms
 6  146.97.35.233  8.160 ms  8.120 ms  8.008 ms
 7  146.97.33.6  7.210 ms  6.849 ms  6.953 ms
 8  146.97.33.61  6.973 ms  6.960 ms  6.909 ms
 9  146.97.35.194  6.975 ms  6.958 ms  6.944 ms
10  219.158.34.225  6.932 ms  7.026 ms  7.082 ms
11  219.158.107.101  197.194 ms  197.187 ms  199.563 ms
12  219.158.3.177  199.421 ms  199.433 ms  199.393 ms
13  219.158.5.149  193.123 ms  193.093 ms  192.669 ms
14  219.158.7.234  216.425 ms 219.158.7.230  215.164 ms 219.158.8.242  219.062 ms
15  139.226.210.98  213.500 ms 139.226.225.186  218.067 ms *
16  112.64.246.222  217.258 ms 139.226.202.22  215.579 ms  215.290 ms
17  112.65.255.150  218.183 ms  219.253 ms  218.915 ms
18  * * *
19  * * *
20  * * *
21  * * *
22  * * *
23  * * *
24  * * *
25  * * *
26  * * *
27  * * *
28  * * *
29  * * *
30  * * *

Sun 25 Mar 12:22:02 BST 2018
traceroute to meet-in-shanghai.net (210.51.49.136), 30 hops max, 60 byte packets
 1  139.222.0.1  1.422 ms  1.409 ms  1.789 ms
 2  10.0.0.1  0.371 ms  0.367 ms  1.301 ms
 3  193.62.92.124  1.303 ms  1.284 ms  1.254 ms
 4  193.62.92.71  1.409 ms  1.235 ms  1.374 ms
 5  146.97.41.209  7.838 ms  7.894 ms  7.852 ms
 6  146.97.35.233  8.132 ms  8.396 ms  8.379 ms
 7  146.97.33.6  8.337 ms  8.332 ms  8.312 ms
 8  146.97.33.61  8.316 ms  8.299 ms  8.293 ms
 9  146.97.35.194  7.323 ms  8.247 ms  8.237 ms
10  219.158.34.225  8.229 ms  7.044 ms  7.068 ms
11  219.158.107.101  199.896 ms  199.844 ms  200.306 ms
12  219.158.3.177  198.138 ms  198.114 ms  198.106 ms
13  219.158.5.149  207.852 ms  207.836 ms  207.821 ms
14  * 219.158.16.86  219.769 ms *
15  139.226.210.94  218.484 ms * 139.226.225.190  218.592 ms
16  139.226.202.22  218.185 ms  219.361 ms 112.64.246.222  219.961 ms
17  112.65.255.150  220.816 ms  220.923 ms  220.619 ms
18  * * *
19  * * *
20  * * *
21  * * *
22  * * *
23  * * *
24  * * *
25  * * *
26  * * *
27  * * *
28  * * *
29  * * *
30  * * *

Sun 25 Mar 18:22:02 BST 2018
traceroute to meet-in-shanghai.net (210.51.49.136), 30 hops max, 60 byte packets
 1  139.222.0.1  1.108 ms  1.393 ms  1.844 ms
 2  10.0.0.1  0.220 ms  0.280 ms  0.261 ms
 3  193.62.92.124  0.964 ms  0.949 ms  1.594 ms
 4  193.62.92.71  2.212 ms  2.667 ms  2.655 ms
 5  146.97.41.209  8.081 ms  8.077 ms  8.056 ms
 6  146.97.35.233  8.007 ms  7.878 ms  7.856 ms
 7  146.97.33.6  7.057 ms  7.046 ms  6.995 ms
 8  146.97.33.61  7.068 ms  7.041 ms  7.128 ms
 9  146.97.35.194  7.115 ms  7.128 ms  7.111 ms
10  219.158.34.225  7.298 ms  7.115 ms  7.183 ms
11  219.158.107.101  197.411 ms  197.394 ms  197.388 ms
12  219.158.3.177  194.069 ms  194.066 ms  194.050 ms
13  219.158.5.149  193.702 ms  193.885 ms  194.094 ms
14  219.158.7.234  217.262 ms 219.158.8.242  220.287 ms 219.158.16.86  217.942 ms
15  * 139.226.225.190  217.321 ms *
16  139.226.202.22  216.671 ms 112.64.246.222  217.855 ms  217.204 ms
17  112.65.255.150  220.169 ms  220.340 ms  218.991 ms
18  * * *
19  * * *
20  * * *
21  * * *
22  * * *
23  * * *
24  * * *
25  * * *
26  * * *
27  * * *
28  * * *
29  * * *
30  * * *

Mon 26 Mar 00:22:02 BST 2018
traceroute to meet-in-shanghai.net (210.51.49.136), 30 hops max, 60 byte packets
 1  139.222.0.1  1.329 ms  1.646 ms  2.060 ms
 2  10.0.0.1  0.303 ms  0.271 ms  1.057 ms
 3  193.62.92.124  1.040 ms  1.031 ms  1.003 ms
 4  193.62.92.71  1.201 ms  1.200 ms  1.325 ms
 5  146.97.41.209  7.676 ms  9.142 ms  9.093 ms
 6  146.97.35.233  9.061 ms  8.705 ms  8.681 ms
 7  146.97.33.6  8.632 ms  7.002 ms  8.599 ms
 8  146.97.33.61  8.589 ms  8.585 ms  8.546 ms
 9  146.97.35.194  8.522 ms  8.497 ms  8.487 ms
10  219.158.34.225  8.474 ms  8.450 ms  7.230 ms
11  219.158.107.101  196.351 ms  196.334 ms  196.309 ms
12  219.158.3.177  199.256 ms  199.209 ms  199.166 ms
13  219.158.5.149  192.213 ms  194.419 ms  194.407 ms
14  219.158.7.230  213.218 ms 219.158.16.90  216.578 ms 219.158.7.230  213.356 ms
15  * 139.226.210.98  212.586 ms 139.226.225.190  215.511 ms
16  112.64.246.222  215.997 ms 139.226.202.22  216.347 ms 112.64.246.222  216.882 ms
17  112.65.255.150  217.862 ms  218.864 ms  217.812 ms
18  * * *
19  * * *
20  * * *
21  * * *
22  * * *
23  * * *
24  * * *
25  * * *
26  * * *
27  * * *
28  * * *
29  * * *
30  * * *

Mon 26 Mar 06:22:02 BST 2018
traceroute to meet-in-shanghai.net (210.51.49.136), 30 hops max, 60 byte packets
 1  139.222.0.1  0.927 ms  1.383 ms  1.744 ms
 2  10.0.0.1  1.064 ms  0.966 ms  1.062 ms
 3  193.62.92.124  0.926 ms  0.966 ms  0.958 ms
 4  193.62.92.71  1.111 ms  1.216 ms  1.319 ms
 5  146.97.41.209  7.884 ms  7.875 ms  7.833 ms
 6  146.97.35.233  7.823 ms  8.031 ms  7.929 ms
 7  146.97.33.6  7.262 ms  7.245 ms  7.234 ms
 8  146.97.33.61  7.140 ms  7.129 ms  7.006 ms
 9  146.97.35.194  6.991 ms  7.089 ms  7.038 ms
10  219.158.34.225  7.104 ms  7.030 ms  7.005 ms
11  219.158.107.101  199.889 ms  199.877 ms  199.727 ms
12  219.158.3.177  195.703 ms  195.685 ms  195.581 ms
13  219.158.5.149  193.864 ms  194.128 ms  194.449 ms
14  219.158.16.90  218.723 ms 219.158.16.86  218.219 ms 219.158.16.90  218.745 ms
15  139.226.210.94  218.387 ms * 139.226.210.98  215.640 ms
16  139.226.202.22  216.982 ms 112.64.246.222  217.371 ms  217.450 ms
17  112.65.255.150  219.149 ms  220.150 ms  219.042 ms
18  * * *
19  * * *
20  * * *
21  * * *
22  * * *
23  * * *
24  * * *
25  * * *
26  * * *
27  * * *
28  * * *
29  * * *
30  * * *

Mon 26 Mar 12:22:03 BST 2018
traceroute to meet-in-shanghai.net (210.51.49.136), 30 hops max, 60 byte packets
 1  139.222.0.1  1.805 ms  1.802 ms  1.955 ms
 2  10.0.0.1  0.331 ms  1.733 ms  1.723 ms
 3  193.62.92.124  1.716 ms  1.699 ms  1.674 ms
 4  193.62.92.71  1.663 ms  1.655 ms  1.637 ms
 5  146.97.41.209  7.924 ms  7.905 ms  7.799 ms
 6  146.97.35.233  7.913 ms  7.836 ms  7.823 ms
 7  146.97.33.6  28.340 ms  30.015 ms  30.004 ms
 8  146.97.33.61  7.032 ms  7.094 ms  7.040 ms
 9  146.97.35.194  6.958 ms  6.938 ms  6.998 ms
10  219.158.34.225  7.538 ms  7.006 ms  6.965 ms
11  219.158.107.101  197.803 ms  197.821 ms  199.519 ms
12  219.158.3.177  197.501 ms  197.490 ms  197.348 ms
13  219.158.5.149  193.774 ms  193.612 ms  194.011 ms
14  219.158.7.230  214.357 ms  215.629 ms 219.158.8.242  220.157 ms
15  * 139.226.210.94  217.177 ms 139.226.225.190  217.407 ms
16  112.64.246.222  216.847 ms  218.712 ms 139.226.202.22  217.834 ms
17  112.65.255.150  219.128 ms  219.523 ms  219.590 ms
18  * * *
19  * * *
20  * * *
21  * * *
22  * * *
23  * * *
24  * * *
25  * * *
26  * * *
27  * * *
28  * * *
29  * * *
30  * * *

